autonomy_state = {
	id = autonomy_wtt_imperial_protectorate
	
	default = yes
	is_puppet = yes
	
	min_freedom_level = 0.2
	
	manpower_influence = 0.9
	
	rule = {
		can_not_declare_war = yes
		can_decline_call_to_war = no
		units_deployed_to_overlord = yes
		can_be_spymaster = no
		contributes_operatives = no
		can_create_collaboration_government = no
	}
	
	modifier = {
		autonomy_manpower_share = 1
		can_master_build_for_us = 1
		extra_trade_to_overlord_factor = 1.0
		overlord_trade_cost_factor = -0.8
		cic_to_overlord_factor = 0.25
		mic_to_overlord_factor = 0.65
		autonomy_gain_global_factor = -0.9
	}
	
	ai_subject_wants_higher = {
		factor = 1.0
	}
	
	ai_overlord_wants_lower = {
		factor = 0.0
	}

	ai_overlord_wants_garrison = {
		always = yes
	}

	allowed = {
		has_dlc = "Waking the Tiger"
		OR = {
			AND = {
				has_government = fascism
				OVERLORD = { original_tag = JAP }
			}
			AND = {
				OR = {
					has_government = fascism
					has_government = neutrality
				}
				OVERLORD = { original_tag = MAN }
			}
		}
	}
	
	can_take_level = {
		MAN = { NOT = {
				OR = { 
				 has_idea = MAN_low_legitimacy_5 
				has_idea = MAN_low_legitimacy_4 
				 has_idea = MAN_low_legitimacy_3 
			 has_idea = MAN_low_legitimacy_2 
				has_idea = MAN_low_legitimacy_1 
				}
				}
		}
	}

	can_lose_level = {
		MAN = { NOT = {
				OR = { 
				 has_idea = MAN_low_legitimacy_5 
				has_idea = MAN_low_legitimacy_4 
				 has_idea = MAN_low_legitimacy_3 
			 has_idea = MAN_low_legitimacy_2 
				has_idea = MAN_low_legitimacy_1 
				}
				}
		}	}
}