


political_actions = {
	improved_worker_conditions = {
		icon = generic_industry
		
		allowed = {
			OR = {	
				tag = SOV
				tag = FRA
				tag = JAP
				tag = RAJ
				tag = AST
				tag = NZL
				tag = MAN
				tag = BUL
				tag = ROM
				tag = HUN
				tag = SPR
				tag = GER
				tag = ITA
				tag = ENG
				tag = IRE
				tag = SAF
				tag = FIN 
				tag = USA
				tag = CAN
				tag = EFR	
			}
		}


		visible = {
			always = yes
		}

		fire_only_once = no

		modifier = {
			stability_weekly = 0.005
			consumer_goods_factor = 0.03
			industrial_capacity_factory = -0.1
		}

		days_remove = 180
		days_re_enable = 540

		cost = 50

		complete_effect = {
		custom_effect_tooltip = "Gives 12.85% Stability in total"
		}

		ai_will_do = {
			base = 0
			modifier = {
				add = 1
				has_stability < 0.6
			}
		}
	}

	promises_of_peace = {

		icon = generic_political_discourse

		available = {
			has_war = no
			
		}
		
		allowed = {
			OR = {	
				tag = SOV
				tag = FRA
				tag = JAP
				tag = RAJ
				tag = AST
				tag = NZL
				tag = MAN
				tag = BUL
				tag = ROM
				tag = HUN
				tag = SPR
				tag = GER
				tag = ITA
				tag = ENG
				tag = IRE
				tag = SAF
				tag = FIN 
				tag = USA
				tag = CAN
				tag = EFR	
			}
		}

		visible = {
			always = yes
		}

		remove_trigger = {
			has_war = yes
			has_war_support < 0.05
		}

		fire_only_once = no

		modifier = {
			stability_weekly = 0.005
			war_support_weekly = -0.01
			political_power_gain = -0.5
		}

		days_remove = 90
		days_re_enable = 360

		cost = 25

		complete_effect = {
		custom_effect_tooltip = "Gives 6.42% Stability and -12.85% War Support in total"
		}

		ai_will_do = {
			base = 0
			modifier = {
				add = 1
				has_stability < 0.4
			}
		}
	}
}


economy_decisions = {

	dismantle_maginot = {

		icon = generic_construction

		allowed = {
			NOT = { OR = { tag = GER tag = FRA } }
		}

		cost = 50
		fire_only_once = yes

		days_remove = 200

		available = {
			controls_state = 28
			}


		visible = {
			28 = {
				is_owned_by = FRA
				is_controlled_by = ROOT
			}
			NOT = { is_in_faction_with = FRA }
		}

		modifier = {
			civilian_factory_use = 5
		}

		complete_effect = {
			28 = {
				set_building_level = {
					type = bunker
					level = 2
					province = {
						all_provinces = yes
						level > 2
					}
				}
			}
		}
		}
	}		

propaganda_efforts = {

	war_propaganda = {

		icon = generic_prepare_civil_war
		allowed = {
			OR = {	
				tag = SOV
				tag = FRA
				tag = JAP
				tag = RAJ
				tag = AST
				tag = NZL
				tag = MAN
				tag = BUL
				tag = ROM
				tag = HUN
				tag = SPR
				tag = GER
				tag = ITA
				tag = ENG
				tag = IRE
				tag = SAF
				tag = FIN 
				tag = USA
				tag = CAN
				tag = EFR	
			}
		}		available = {
			NOT = { has_country_flag = war_propaganda_campaign_running }
			threat > 0.3
			has_offensive_war = no
		}

		visible = {
			
		}

		fire_only_once = no

		days_remove = 90
		days_re_enable = 0

		cost = 50

		modifier = {
			war_support_weekly = 0.01
		}

		complete_effect = {
			set_country_flag = war_propaganda_campaign_running
		}
		remove_effect = {
			clr_country_flag = war_propaganda_campaign_running
		}

		ai_will_do = {
			base = 0
			modifier = {
				add = 1
				has_war_support < 0.4
				has_war = yes
			}
		}
	}

	#Propaganda campaign against a country in offensive that has caused a lot of tension and started a war

	#Propaganda campaign against a neighbor
}

operations = {

	blow_suez_canal = {

		icon = GFX_decision_generic_ignite_civil_war
		allowed = {
			OR = {tag = ENG tag = GER tag = ITA }
		}
		available = {
			controls_state = 446
			controls_state = 453
			OR = {
				NOT = {
					owns_state = 446
					owns_state = 453
				}
				any_country = {
					has_war_with = ROOT
					OR = {
						controls_state = 452
						controls_state = 447
						controls_state = 456
						controls_state = 457
						controls_state = 454
						controls_state = 455
					}
				}
			}
		}
	
		visible = {
			has_war = yes
			NOT = { has_global_flag = SUEZ_CANAL_BLOCKED }
			any_state = {
				is_controlled_by = ROOT
				OR = {
					region = 28
					region = 128
				}
			}
		}
	
		fire_only_once = no
	
		days_remove = 30
	
		cost = 75
	
		modifier = {
			civilian_factory_use = 5
		}

		complete_effect = {
			hidden_effect = {
				if = {
					limit = {
						NOT = {
							owns_state = 446
							owns_state = 453
						}
					}
					random_country = {
						limit = {
							owns_state = 446
							owns_state = 453
						}
						country_event = { id = generic.12 days = 1 }
					}
				}
			}
		}
	
		remove_effect = {
			if = {
				limit = {
					OR = {
						has_full_control_of_state = 446
						has_full_control_of_state = 453
					}
				}
				set_country_flag = blew_up_suez
				set_global_flag = SUEZ_CANAL_BLOCKED
				country_event = { id = wtt_news.40 hours = 6}
			}
			effect_tooltip = {
				if = {
					limit = {
						ENG = {
							owns_state = 446
							owns_state = 453
						}
					}
					add_war_support = -0.05
					add_stability = -0.05
				}
			}
		}
		ai_will_do = {
			factor = 1
			modifier = {
				factor = 0 # Don't blow the canal when you've got troops needing supplies in the Horn of Africa, and no land route has been established there
				any_country = {
					is_in_faction_with = ROOT
					NOT = {
						OR = {
							has_full_control_of_state = 457
							has_full_control_of_state = 456
						}
					}
					NOT = { has_full_control_of_state = 551 }
					OR = {
						divisions_in_state = { state = 550 size > 0 }
						divisions_in_state = { state = 268 size > 0 }
						divisions_in_state = { state = 269 size > 0 }
						divisions_in_state = { state = 559 size > 0 }
					}
				}
			}
			modifier = {
				factor = 200 # Try to cut the enemy off from the mediterranean if you also occupy Gibraltar
				OR = {
					has_full_control_of_state = 118
					any_other_country = {
						is_in_faction_with = ROOT
						has_full_control_of_state = 118
					}
				}
				has_war = yes
				NOT = { tag = ENG }
			}
		}
	}
	
	



}

special_projects = {

	rebuild_suez_canal = {

		icon = GFX_decision_generic_special_project
		allowed = {
			OR = {	
				tag = SOV
				tag = FRA
				tag = JAP
				tag = RAJ
				tag = AST
				tag = NZL
				tag = MAN
				tag = BUL
				tag = ROM
				tag = HUN
				tag = SPR
				tag = GER
				tag = ITA
				tag = ENG
				tag = IRE
				tag = SAF
				tag = FIN 
				tag = USA
				tag = CAN
				tag = EFR	
			}
		}		
		available = {
			any_country = {
				is_in_faction_with = ROOT
				has_full_control_of_state = 446
			}
			any_country = {
				is_in_faction_with = ROOT
				has_full_control_of_state = 453
			}
			num_of_civilian_factories > 15
		}
	
		visible = {
			has_global_flag = SUEZ_CANAL_BLOCKED
		}
	
		fire_only_once = no
	
		days_remove = 180
	
		cost = 75
	
		modifier = {
			civilian_factory_use = 10
		}
	
		remove_effect = {
			if = {
				limit = {
					any_country = {
						is_in_faction_with = ROOT
						has_full_control_of_state = 446
					}
					any_country = {
						is_in_faction_with = ROOT
						has_full_control_of_state = 453
					}
				}
				set_country_flag = rebuilt_suez
				clr_global_flag = SUEZ_CANAL_BLOCKED
				country_event = { id = wtt_news.42 hours = 6}
			}
		}

		ai_will_do = {
			factor = 1
		}
	}

	
}

war_measures = {
	
	women_in_the_workforce = {

		icon = generic_industry

        allowed = {
			OR = {	
				tag = SOV

				tag = JAP
			
			}
		}

        available = {
            has_war = yes
            has_idea = tot_economic_mobilisation
            OR = {
                AND = {
                    has_government = democratic
                    has_war_support > 0.79
                }
                AND = {
                    has_government = communism
                    has_war_support > 0.79
                }
                AND = {
                    has_government = fascism
                    OR = {
                        has_war_support > 0.89
                        surrender_progress > 0
                    }
                }
                AND = {
                    has_government = neutrality
                    has_war_support > 0.84
                    has_stability > 0.7
                }
            }
        }
        visible = {
            has_war = yes
        }
        cost = 100
        days_remove = -1
        remove_trigger = {
        	OR = {
            	has_war = no
            	not = { has_idea = tot_economic_mobilisation }
            }
        }
        modifier = {
            conscription = 0.03
            stability_factor = -0.05
        }
        ai_will_do = {
			factor = 1

			modifier = {
				factor = 3
				has_manpower < 100000
			}
		}
		complete_effect = {
			if = {
				limit = {
					tag = CAN
				}
				country_event = { id = canada_vanilla.1 hours = 6 } # Ronnie the Bren Gun Girl
			}
        }
   }

    war_bonds = {

    	icon = generic_industry
		allowed = {
			OR = {	
				tag = SOV
				tag = FRA
				tag = JAP
				tag = RAJ
				tag = AST
				tag = NZL
				tag = MAN
				tag = BUL
				tag = ROM
				tag = HUN
				#tag = SPR
				tag = GER
				tag = ITA
				tag = ENG
				tag = IRE
				tag = SAF
				tag = FIN 
				tag = USA
				tag = CAN
				tag = EFR	
			}
		}
        available = {
            has_war = yes
            OR = {
                AND = {
                    has_government = democratic
                    has_war_support > 0.79
                }
                AND = {
                    has_government = communism
                    has_war_support > 0.79
                }
                AND = {
                    has_government = fascism
                    OR = {
                        has_war_support > 0.89
                        surrender_progress > 0
                    }
                }
                AND = {
                    has_government = neutrality
                    has_war_support > 0.84
                    has_stability > 0.7
                }
            }
        }
        visible = {
            has_war = yes
        }

        fire_only_once = no

		days_remove = 180

		cost = GER_war_bonds_var?50

		modifier = {
			consumer_goods_factor = -0.05
		}

		ai_will_do = {
			factor = 1
			modifier = {
				has_political_power < 100
				factor = 0 #use as pp dump
			}

			modifier = {
				factor = 0
				original_tag = SOV
				SOV_save_pp_for_manpower_trouble = yes
			}
		}

		remove_effect = {

		}

		complete_effect = {
			if = {
				limit = {
					check_variable = {
						var = GER_war_bonds_var
						value = 50
						compare = less_than
					}
				}
				set_variable = {
					var = GER_war_bonds_var
					value = 50
				}
			}
			add_to_variable = {
				var = GER_war_bonds_var
				value = 25
			}
			if = {
				limit = {
					check_variable = {
						var = GER_war_bonds_var
						value = 100
						compare = greater_than_or_equals
					}
					check_variable = {
						var = GER_war_bonds_war_support_var
						value = -0.025
						compare = greater_than
					}
				}
				set_variable = {
					var = GER_war_bonds_war_support_var
					value = -0.025
				}
			}
			if = {
				limit = {
					check_variable = {
						var = GER_war_bonds_war_support_var
						value = -0.025
						compare = less_than_or_equals
					}
				}
				add_to_variable = {
					var = GER_war_bonds_war_support_var
					value = -0.025
				}
				add_war_support = GER_war_bonds_war_support_var
			}
		}
    }
}

economy_decisions = {
	infrastructure_building_slot = {

		icon = generic_construction

        allowed = {
			OR = {	
				tag = SOV
				tag = FRA
				tag = JAP
				tag = RAJ
				tag = AST
				tag = NZL
				tag = MAN
				tag = BUL
				tag = ROM
				tag = HUN
				tag = SPR
				tag = GER
				tag = ITA
				tag = ENG
				tag = IRE
				tag = SAF
				tag = FIN 
				tag = USA
				tag = CAN
				tag = EFR	
			}
		}

        cost = 25
        fire_only_once = no

        days_re_enable = 30

	available = {
		any_owned_state = {
			NOT = { has_state_flag = infrastructure_building_slot_flag }
			is_fully_controlled_by = ROOT
			free_building_slots = {
				building = infrastructure
				size < 1
			}
		}
	}

	visible = {
		any_owned_state = {
			NOT = { has_state_flag = infrastructure_building_slot_flag }
			is_fully_controlled_by = ROOT
			free_building_slots = {
				building = infrastructure
				size < 1
			}
		}
	}

        complete_effect = {
			random_owned_state = {
				limit = {
					is_fully_controlled_by = ROOT
					is_owned_by = ROOT
            		free_building_slots = {
						building = industrial_complex
						size > 1
						include_locked = yes
					}
					free_building_slots = {
						building = infrastructure
						size < 1
					}
					NOT = { has_state_flag = infrastructure_building_slot_flag }
				}
				add_extra_state_shared_building_slots = 4
				set_state_flag = infrastructure_building_slot_flag
			}
		}
		ai_will_do = {
			factor = 1
			modifier = {
				factor = 10
				any_owned_state = { free_building_slots = { building = industrial_complex size < 1 include_locked = no } }
			}
		}
    }

   
}


	
