﻿ROM_OPERATIVE_CODENAME_HISTORICAL = {
	name = ROM_OPERATIVE_CODENAME_HISTORICAL

	for_countries = { ROM}

	type = codename

	fallback_name = "Agent %d"

	unique = {
		"Tepes"
		"Corvinus"
		"Basarab"
		"Alexandru"
		"Draculesti"
		"Gelou"
		"Frumos"
		"Calugarul"
        "Bogdan"
        "Latcu"
        "Musat"
        "Movilesti"
        "Cantemiresti"
	}
}
