version="1.9.3"
tags={
	"Alternative History"
}
name="testing mod"
replace_path="history/countries"
replace_path="history/states"
replace_path="history/units"
replace_path="common/ideas"
replace_path="common/ai_focuses"
replace_path="common/ai_strategy"
replace_path="common/ai_equipment"
replace_path="common/ai_peace"
replace_path="common/ai_strategy_plans"
replace_path="common/ai_templates"
replace_path="common/bookmarks"
replace_path="common/countries"
replace_path="common/decisions"
replace_path="common/decisions/categories"
replace_path="common/national_focus"
replace_path="common/units/names_divisions"
replace_path="common/units/names_ships"
replace_path="gfx/loadingscreens"
replace_path="events"
supported_version="1.9.3"
remote_file_id="2269530807"