
strategic_region={
	id=130
	name="STRATEGICREGION_130"
	provinces={
		238 409 422 429 434 438 441 453 458 462 472 474 476 486 488 489 491 504 511 513 525 536 546 550 559 568 572 574 582 588 721 737 741 754 767 3399 3403 3412 3430 3452 3457 3468 3470 3480 3483 3494 3511 3542 3543 3557 3562 3568 3570 3573 3575 3584 3738 3743 3755 3757 3767 6423 6429 6431 6435 6451 6455 6458 6460 6478 6480 6483 6495 6497 6507 6508 6509 6520 6532 6557 6578 6589 6593 6596 6597 6605 6771 9413 9419 9423 9425 9433 9435 9437 9451 9454 9463 9465 9466 9468 9479 9481 9491 9493 9506 9519 9533 9543 9558 9568 9571 9573 9576 9698 9712 9714 9729 11405 11409 11411 11422 11424 11425 11427 11437 11438 11441 11452 11454 11464 11477 11479 11489 11490 11504 11514 11530 11543 11546 11550 11557 11561 11670 11683 11700 11703 11715
	}
	weather={
		period={
			between={ 0.0 30.0 }
			temperature={ -25.0 -10.0 }
			temperature_day_night={ 0.0 -5.0 }
			no_phenomenon=0.100
			rain_light=0.100
			rain_heavy=0.050
			snow=0.440
			blizzard=0.140
			arctic_water=0.000
			mud=0.100
			sandstorm=0.000
			min_snow_level=0.100
		}
		period={
			between={ 0.1 27.1 }
			temperature={ -25.0 -5.0 }
			temperature_day_night={ 0.0 -5.0 }
			no_phenomenon=0.100
			rain_light=0.100
			rain_heavy=0.050
			snow=0.500
			blizzard=0.220
			arctic_water=0.000
			mud=0.100
			sandstorm=0.000
			min_snow_level=0.100
		}
		period={
			between={ 0.2 30.2 }
			temperature={ -10.0 5.0 }
			temperature_day_night={ 0.0 -5.0 }
			no_phenomenon=0.550
			rain_light=0.100
			rain_heavy=0.050
			snow=0.300
			blizzard=0.100
			arctic_water=0.000
			mud=0.200
			sandstorm=0.000
			min_snow_level=0.000
		}
		period={
			between={ 0.3 29.3 }
			temperature={ 0.0 16.0 }
			temperature_day_night={ 7.0 -7.0 }
			no_phenomenon=0.600
			rain_light=0.200
			rain_heavy=0.100
			snow=0.150
			blizzard=0.000
			arctic_water=0.000
			mud=0.200
			sandstorm=0.000
			min_snow_level=0.000
		}
		period={
			between={ 0.4 30.4 }
			temperature={ 7.0 19.0 }
			temperature_day_night={ 6.0 -6.0 }
			no_phenomenon=0.600
			rain_light=0.200
			rain_heavy=0.100
			snow=0.000
			blizzard=0.000
			arctic_water=0.000
			mud=0.300
			sandstorm=0.000
			min_snow_level=0.000
		}
		period={
			between={ 0.5 29.5 }
			temperature={ 11.0 22.0 }
			temperature_day_night={ 8.0 -8.0 }
			no_phenomenon=0.600
			rain_light=0.250
			rain_heavy=0.150
			snow=0.000
			blizzard=0.000
			arctic_water=0.000
			mud=0.200
			sandstorm=0.000
			min_snow_level=0.000
		}
		period={
			between={ 0.6 30.6 }
			temperature={ 13.0 24.0 }
			temperature_day_night={ 8.0 -8.0 }
			no_phenomenon=0.700
			rain_light=0.600
			rain_heavy=0.500
			snow=0.000
			blizzard=0.000
			arctic_water=0.000
			mud=0.200
			sandstorm=0.000
			min_snow_level=0.000
		}
		period={
			between={ 0.7 30.7 }
			temperature={ 12.0 23.0 }
			temperature_day_night={ 8.0 -8.0 }
			no_phenomenon=0.800
			rain_light=0.600
			rain_heavy=0.500
			snow=0.000
			blizzard=0.000
			arctic_water=0.000
			mud=0.300
			sandstorm=0.000
			min_snow_level=0.000
		}
		period={
			between={ 0.8 29.8 }
			temperature={ 7.0 17.0 }
			temperature_day_night={ 8.0 -8.0 }
			no_phenomenon=0.100
			rain_light=0.550
			rain_heavy=0.450
			snow=0.000
			blizzard=0.000
			arctic_water=0.000
			mud=0.500
			sandstorm=0.000
			min_snow_level=0.000
		}
		period={
			between={ 0.9 30.9 }
			temperature={ 5.0 10.0 }
			temperature_day_night={ 8.0 -8.0 }
			no_phenomenon=0.100
			rain_light=0.600
			rain_heavy=0.500
			snow=0.150
			blizzard=0.000
			arctic_water=0.000
			mud=0.500
			sandstorm=0.000
			min_snow_level=0.000
		}
		period={
			between={ 0.10 14.10 }
			temperature={ -5.0 10.0 }
			temperature_day_night={ 0.0 -8.0 }
			no_phenomenon=0.000
			rain_light=0.600
			rain_heavy=0.500
			snow=0.200
			blizzard=0.000
			arctic_water=0.000
			mud=0.500
			sandstorm=0.000
			min_snow_level=0.000
		}
		period={
			between={ 15.10 29.10 }
			temperature={ -5.0 -10.0 }
			temperature_day_night={ 0.0 -8.0 }
			no_phenomenon=0.000
			rain_light=0.600
			rain_heavy=0.500
			snow=0.400
			blizzard=0.100
			arctic_water=0.000
			mud=0.200
			sandstorm=0.000
			min_snow_level=0.100
		}
		period={
			between={ 0.11 30.11 }
			temperature={ -10.0 -15.0 }
			temperature_day_night={ 0.0 -5.0 }
			no_phenomenon=0.100
			rain_light=0.600
			rain_heavy=0.500
			snow=0.600
			blizzard=0.000
			arctic_water=0.000
			mud=0.200
			sandstorm=0.000
			min_snow_level=0.200
		}
	}
}
