
strategic_region={
	id=131
	name="STRATEGICREGION_131"
	provinces={
		215 216 294 304 323 331 342 360 386 3203 3219 3267 3293 3331 3350 3378 3507 3759 6220 6232 6249 6292 6319 6326 6371 6373 6556 9241 9249 9289 9323 9554 11216 11220 11241 11313 11322 11370 11453 233 277 358 406 6340 9341 11391 318 3281 3366 3393 6359 6413 9236 9304 9359 11341 13206 535 560 3256 3309 3392 3496 3556 6280 6306 6415 6546 6579 9520 11285 11503 11528 289 6233 6344 6354 9247 9288 9342 9371 9396 11230 11271 11355 11383
	}
	weather={
		period={
			between={ 0.0 30.0 }
			temperature={ -25.0 -10.0 }
			temperature_day_night={ 0.0 -5.0 }
			no_phenomenon=0.100
			rain_light=0.100
			rain_heavy=0.050
			snow=0.440
			blizzard=0.140
			arctic_water=0.000
			mud=0.1
			sandstorm=0.000
			min_snow_level=0.100
		}
		period={
			between={ 0.1 27.1 }
			temperature={ -25.0 -5.0 }
			temperature_day_night={ 0.0 -5.0 }
			no_phenomenon=0.100
			rain_light=0.100
			rain_heavy=0.050
			snow=0.500
			blizzard=0.220
			arctic_water=0.000
			mud=0.1
			sandstorm=0.000
			min_snow_level=0.100
		}
		period={
			between={ 0.2 30.2 }
			temperature={ -10.0 5.0 }
			temperature_day_night={ 0.0 -5.0 }
			no_phenomenon=0.550
			rain_light=0.100
			rain_heavy=0.050
			snow=0.300
			blizzard=0.100
			arctic_water=0.000
			mud=0.2
			sandstorm=0.000
			min_snow_level=0.000
		}
		period={
			between={ 0.3 29.3 }
			temperature={ 0.0 16.0 }
			temperature_day_night={ 7.0 -7.0 }
			no_phenomenon=0.600
			rain_light=0.200
			rain_heavy=0.100
			snow=0.150
			blizzard=0.000
			arctic_water=0.000
			mud=0.2
			sandstorm=0.000
			min_snow_level=0.000
		}
		period={
			between={ 0.4 30.4 }
			temperature={ 7.0 19.0 }
			temperature_day_night={ 6.0 -6.0 }
			no_phenomenon=0.600
			rain_light=0.200
			rain_heavy=0.100
			snow=0.000
			blizzard=0.000
			arctic_water=0.000
			mud=0.3
			sandstorm=0.000
			min_snow_level=0.000
		}
		period={
			between={ 0.5 29.5 }
			temperature={ 11.0 22.0 }
			temperature_day_night={ 8.0 -8.0 }
			no_phenomenon=0.600
			rain_light=0.250
			rain_heavy=0.150
			snow=0.000
			blizzard=0.000
			arctic_water=0.000
			mud=0.2
			sandstorm=0.000
			min_snow_level=0.000
		}
		period={
			between={ 0.6 30.6 }
			temperature={ 13.0 24.0 }
			temperature_day_night={ 8.0 -8.0 }
			no_phenomenon=0.700
			rain_light=0.600
			rain_heavy=0.500
			snow=0.000
			blizzard=0.000
			arctic_water=0.000
			mud=0.2
			sandstorm=0.000
			min_snow_level=0.000
		}
		period={
			between={ 0.7 30.7 }
			temperature={ 12.0 23.0 }
			temperature_day_night={ 8.0 -8.0 }
			no_phenomenon=0.800
			rain_light=0.600
			rain_heavy=0.500
			snow=0.000
			blizzard=0.000
			arctic_water=0.000
			mud=0.3
			sandstorm=0.000
			min_snow_level=0.000
		}
		period={
			between={ 0.8 29.8 }
			temperature={ 7.0 17.0 }
			temperature_day_night={ 8.0 -8.0 }
			no_phenomenon=0.100
			rain_light=0.550
			rain_heavy=0.450
			snow=0.000
			blizzard=0.000
			arctic_water=0.000
			mud=0.5
			sandstorm=0.000
			min_snow_level=0.000
		}
		period={
			between={ 0.9 30.9 }
			temperature={ 5.0 10.0 }
			temperature_day_night={ 8.0 -8.0 }
			no_phenomenon=0.100
			rain_light=0.600
			rain_heavy=0.500
			snow=0.150
			blizzard=0.000
			arctic_water=0.000
			mud=0.5
			sandstorm=0.000
			min_snow_level=0.000
		}
		period={
			between={ 0.10 14.10 }
			temperature={ -5.0 10.0 }
			temperature_day_night={ 0.0 -8.0 }
			no_phenomenon=0.000
			rain_light=0.600
			rain_heavy=0.500
			snow=0.200
			blizzard=0.000
			arctic_water=0.000
			mud=0.5
			sandstorm=0.000
			min_snow_level=0.000
		}
		period={
			between={ 15.10 29.10 }
            temperature={ -5.0 -10.0 }
			temperature_day_night={ 0.0 -8.0 }
			no_phenomenon=0.000
			rain_light=0.600
			rain_heavy=0.500
			snow=0.400
			blizzard=0.100
			arctic_water=0.000
			mud=0.200
			sandstorm=0.000
			min_snow_level=0.100
		}
		period={
			between={ 0.11 30.11 }
			temperature={ -10.0 -15.0 }
			temperature_day_night={  0.0 -5.0 }
			no_phenomenon=0.100
			rain_light=0.600
			rain_heavy=0.500
			snow=0.600
			blizzard=0.000
			arctic_water=0.000
			mud=0.2
			sandstorm=0.000
			min_snow_level=0.200
		}
	}
}
