strategic_region={
	id=136
	name="STRATEGICREGION_136"
	provinces={
		475 642 756 1216 1220 1223 1229 1239 1243 1247 1272 1276 1287 1303 1309 1312 1314 1331 1360 1363 1371 1375 1382 1384 1391 1402 1418 1429 1459 1479 1483 1493 1517 1532 1554 1573 1576 1591 1593 1614 1623 1632 1649 1662 1668 1675 1680 1694 1721 1749 1818 1825 1840 1864 1879 1919 2058 3593 4224 4227 4232 4238 4250 4254 4277 4281 4294 4300 4303 4309 4316 4333 4337 4340 4369 4374 4376 4389 4391 4394 4467 4482 4488 4492 4499 4523 4542 4549 4563 4578 4581 4595 4599 4618 4620 4629 4636 4638 4651 4661 4670 4674 4685 4686 4764 4768 4773 4845 4850 4867 4923 4958 5003 5062 7224 7233 7243 7298 7313 7317 7326 7332 7335 7337 7341 7350 7354 7357 7370 7383 7392 7405 7407 7410 7425 7429 7477 7486 7491 7501 7507 7541 7556 7560 7563 7597 7600 7618 7635 7639 7641 7657 7682 7706 7708 7711 7741 7775 7777 7784 7795 7856 7874 7890 7924 8027 8099 9605 10131 10140 10146 10148 10161 10164 10168 10179 10187 10202 10205 10211 10218 10220 10235 10239 10253 10262 10264 10268 10275 10277 10284 10290 10292 10295 10308 10312 10348 10353 10357 10359 10366 10395 10406 10408 10414 10417 10420 10435 10452 10470 10485 10488 10506 10508 10510 10530 10547 10550 10584 10601 10603 10610 10619 10630 10633 10653 10660 10671 10680 10742 11687 11701 12108 12111 12115 12121 12139 12143 12152 12161 12163 12170 12177 12179 12185 12194 12198 12218 12227 12229 12233 12235 12239 12250 12254 12257 12266 12285 12294 12324 12329 12333 12340 12359 12370 12383 12385 12397 12427 12430 12454 12465 12471 12474 12487 12491 12511 12529 12564 12581 12583 12594 12616 12619 12635 12640 12658 12662 12722 12805 13008 13147 13148 13149 13151 13197 13207 
	}
}
