strategic_region={
	id=144
	name="STRATEGICREGION_144"
	provinces={
		517 531 556 1367 1395 1458 1630 1647 1778 1893 1933 1959 1976 1985 2006 2022 2028 2030 2087 2091 3427 3742 3745 4167 4256 4295 4313 4525 4783 4925 4939 4960 4986 5007 5025 5031 5048 5057 5076 5092 5100 6638 6999 7048 7158 7208 7240 7256 7301 7314 7397 7406 7418 7511 7631 7659 7727 7803 7911 7971 8026 8049 8055 8081 8102 8127 10132 10144 10257 10424 10451 10629 10724 10733 10770 10854 10880 10899 11865 12156 12274 12327 12331 12356 12403 12596 12609 12705 12706 12713 12750 12767 12776 12797 12820 12880 12882 
	}
	
}
