strategic_region={
	id=149
	name="STRATEGICREGION_149"
	provinces={
		1666 1672 1696 1707 1714 1722 1727 1735 1745 1748 1761 1762 1792 1795 1803 1805 1810 1813 1819 1823 1826 1829 1839 1852 1863 1865 1876 1878 2853 2877 3184 4006 4229 4455 4675 4677 4703 4705 4716 4719 4726 4728 4737 4744 4750 4752 4762 4766 4795 4797 4798 4808 4810 4815 4821 4832 4835 4837 4855 4868 4878 4881 5264 6211 7713 7725 7726 7736 7746 7751 7759 7765 7769 7772 7786 7802 7816 7817 7828 7835 7838 7841 7844 7854 7860 7876 7878 7889 7902 10524 10528 10540 10543 10549 10557 10559 10562 10565 10570 10572 10574 10583 10589 10596 10598 10608 10628 10641 10643 10654 10658 10661 10664 10667 10681 10683 10688 10699 10701 10714 11607 12207 12506 12507 12518 12522 12523 12525 12531 12538 12540 12549 12551 12556 12565 12575 12592 12608 12611 12622 12623 12634 12641 12644 12647 12650 12668 12681 12683 12694 13059 13061 13062 13063 13152 13204 
	}
}
