
strategic_region={
	id=219
	name="STRATEGICREGION_219"
	provinces={
		212 223 236 246 261 274 288 300 302 306 315 328 335 343 352 356 371 382 384 398 3199 3210 3226 3236 3247 3250 3263 3278 3279 3291 3292 3297 3306 3308 3313 3318 3335 3345 3346 3362 3364 3376 3377 3390 6230 6243 6252 6262 6273 6305 6315 6317 6330 6333 6341 6355 6365 6369 6386 6387 6396 6398 6411 9253 9261 9272 9301 9318 9328 9339 9351 9355 9366 9382 9384 9394 9399 9411 11214 11229 11235 11242 11254 11283 11284 11290 11298 11300 11310 11325 11336 11337 11347 11353 11368 11369 11384 
	}
	weather={
		period={
			between={ 0.0 30.0 }
			temperature={ -25.0 -10.0 }
			temperature_day_night={ 0.0 -5.0 }
			no_phenomenon=0.100
			rain_light=0.100
			rain_heavy=0.050
			snow=0.440
			blizzard=0.140
			arctic_water=0.000
			mud=0.100
			sandstorm=0.000
			min_snow_level=0.100
		}
		period={
			between={ 0.1 27.1 }
			temperature={ -25.0 -5.0 }
			temperature_day_night={ 0.0 -5.0 }
			no_phenomenon=0.100
			rain_light=0.100
			rain_heavy=0.050
			snow=0.500
			blizzard=0.220
			arctic_water=0.000
			mud=0.100
			sandstorm=0.000
			min_snow_level=0.100
		}
		period={
			between={ 0.2 30.2 }
			temperature={ -10.0 5.0 }
			temperature_day_night={ 0.0 -5.0 }
			no_phenomenon=0.550
			rain_light=0.100
			rain_heavy=0.050
			snow=0.300
			blizzard=0.100
			arctic_water=0.000
			mud=0.200
			sandstorm=0.000
			min_snow_level=0.000
		}
		period={
			between={ 0.3 29.3 }
			temperature={ 0.0 16.0 }
			temperature_day_night={ 7.0 -7.0 }
			no_phenomenon=0.600
			rain_light=0.200
			rain_heavy=0.100
			snow=0.150
			blizzard=0.000
			arctic_water=0.000
			mud=0.200
			sandstorm=0.000
			min_snow_level=0.000
		}
		period={
			between={ 0.4 30.4 }
			temperature={ 7.0 19.0 }
			temperature_day_night={ 6.0 -6.0 }
			no_phenomenon=0.600
			rain_light=0.200
			rain_heavy=0.100
			snow=0.000
			blizzard=0.000
			arctic_water=0.000
			mud=0.300
			sandstorm=0.000
			min_snow_level=0.000
		}
		period={
			between={ 0.5 29.5 }
			temperature={ 11.0 22.0 }
			temperature_day_night={ 8.0 -8.0 }
			no_phenomenon=0.600
			rain_light=0.250
			rain_heavy=0.150
			snow=0.000
			blizzard=0.000
			arctic_water=0.000
			mud=0.200
			sandstorm=0.000
			min_snow_level=0.000
		}
		period={
			between={ 0.6 30.6 }
			temperature={ 13.0 24.0 }
			temperature_day_night={ 8.0 -8.0 }
			no_phenomenon=0.700
			rain_light=0.600
			rain_heavy=0.500
			snow=0.000
			blizzard=0.000
			arctic_water=0.000
			mud=0.200
			sandstorm=0.000
			min_snow_level=0.000
		}
		period={
			between={ 0.7 30.7 }
			temperature={ 12.0 23.0 }
			temperature_day_night={ 8.0 -8.0 }
			no_phenomenon=0.800
			rain_light=0.600
			rain_heavy=0.500
			snow=0.000
			blizzard=0.000
			arctic_water=0.000
			mud=0.300
			sandstorm=0.000
			min_snow_level=0.000
		}
		period={
			between={ 0.8 29.8 }
			temperature={ 7.0 17.0 }
			temperature_day_night={ 8.0 -8.0 }
			no_phenomenon=0.100
			rain_light=0.550
			rain_heavy=0.450
			snow=0.000
			blizzard=0.000
			arctic_water=0.000
			mud=0.500
			sandstorm=0.000
			min_snow_level=0.000
		}
		period={
			between={ 0.9 30.9 }
			temperature={ 5.0 10.0 }
			temperature_day_night={ 8.0 -8.0 }
			no_phenomenon=0.100
			rain_light=0.600
			rain_heavy=0.500
			snow=0.150
			blizzard=0.000
			arctic_water=0.000
			mud=0.500
			sandstorm=0.000
			min_snow_level=0.000
		}
		period={
			between={ 0.10 14.10 }
			temperature={ -5.0 10.0 }
			temperature_day_night={ 0.0 -8.0 }
			no_phenomenon=0.000
			rain_light=0.600
			rain_heavy=0.500
			snow=0.200
			blizzard=0.000
			arctic_water=0.000
			mud=0.500
			sandstorm=0.000
			min_snow_level=0.000
		}
		period={
			between={ 15.10 29.10 }
			temperature={ -5.0 -10.0 }
			temperature_day_night={ 0.0 -8.0 }
			no_phenomenon=0.000
			rain_light=0.600
			rain_heavy=0.500
			snow=0.400
			blizzard=0.100
			arctic_water=0.000
			mud=0.200
			sandstorm=0.000
			min_snow_level=0.100
		}
		period={
			between={ 0.11 30.11 }
			temperature={ -10.0 -15.0 }
			temperature_day_night={ 0.0 -5.0 }
			no_phenomenon=0.100
			rain_light=0.600
			rain_heavy=0.500
			snow=0.600
			blizzard=0.000
			arctic_water=0.000
			mud=0.200
			sandstorm=0.000
			min_snow_level=0.200
		}
	}
}
