focus_tree = {
	id = new_zealander_focus
	
	country = {
		factor = 0
		
		modifier = {
			add = 10
			tag = NZL
			has_dlc = "Together for Victory"
		}

		#modifier = {
		#	add = 10
		#	original_tag = NZL
		#	has_dlc = "Together for Victory"
		#}
	}
	
	default = no

#	focus = {
#		id = NZL_
#		icon = GFX_
#		prerequisite = { focus = }
#		mutually_exclusive = { focus =  }
#		x = -3
#		y = 0
#		relative_position_id =
#
#		cost = 10
#
#		ai_will_do = {
#			factor = 1
#		}
#
#		available = {
#
#		}
#		
#		bypass = {
#
#		}
#
#		cancel_if_invalid = yes
#		continue_if_invalid = no
#		available_if_capitulated = no
#		complete_tooltip = {
#
#		}
#
#		completion_reward = {
#
#		}
#	}






	############################
	###### NAVY SECTION ########
	############################


	focus = {
		id = NZL_form_the_rnzn
		icon = GFX_NZL_Royal_New_Zealand_Navy
		x = 8
		y = 0

		cost = 5

		ai_will_do = {
			factor = 25
		}

		available = {

		}

		bypass = {

		}

		cancel_if_invalid = yes
		continue_if_invalid = no
		available_if_capitulated = no

		completion_reward = {
			navy_experience = 25
			add_tech_bonus = {
				name = NZL_form_the_rnzn
				bonus = 1.0
				uses = 2
				category = naval_doctrine
			}
									add_equipment_production = {
							equipment = {
								type = ship_hull_cruiser_1
								creator = "NZL"
								version_name = "Danae Class"
							}
							requested_factories = 1
							progress = 1.0
							amount = 1
						}
		}
	}

	focus = {
		id = NZL_expand_devonport_naval_base
		icon = GFX_GENERIC_Expand_the_Canal
		prerequisite = { focus = NZL_form_the_rnzn }
		x = -1
		y = 1
		relative_position_id = NZL_form_the_rnzn

		cost = 5

		ai_will_do = {
			factor = 25
		}

		available = {

		}

		bypass = {

		}

		cancel_if_invalid = yes
		continue_if_invalid = no
		available_if_capitulated = no

		complete_tooltip = {
			random_state = {
				limit = {
					has_state_flag = NZL_expand_devonport_naval_base_DY
				}
				add_extra_state_shared_building_slots = 2
				add_building_construction = {
					type = dockyard
					level = 2
					instant_build = yes
				}
			}
		}

		completion_reward = {
			random_owned_controlled_state = {
				prioritize = { 284 }
				limit = {
					is_coastal = yes
					free_building_slots = {
						building = dockyard
						size > 1
						include_locked = yes
					}
				}
				add_extra_state_shared_building_slots = 2
				add_building_construction = {
					type = dockyard
					level = 2
					instant_build = yes
				}
				set_state_flag = NZL_expand_devonport_naval_base_DY
			}
		
		}
	}

	focus = {
		id = NZL_coastal_defense
		icon = GFX_goal_generic_fortify_city
		prerequisite = { focus = NZL_form_the_rnzn }
		x = 1
		y = 1
		relative_position_id = NZL_form_the_rnzn

		cost = 2	

		ai_will_do = {
			factor = 25
		}

		available = {
		}

		bypass = {
			NOT = {
				controls_state = 284
			}
			NOT = {
				controls_state = 723
			}
		}

		cancel_if_invalid = yes
		continue_if_invalid = no
		available_if_capitulated = no

		completion_reward = {
			every_owned_state = {
				limit = {
					is_controlled_by = ROOT
					OR = {
						state = 284
						state = 723
					}
				}
				set_building_level = {
					type = coastal_bunker
					province = {
						all_provinces = yes
						limit_to_coastal = yes
					}
					level = 5
					instant_build = yes
				}

				set_building_level = {
					type = coastal_bunker
					province = {
						all_provinces = yes
						limit_to_naval_base = yes
					}
					level = 5
					instant_build = yes
				}
			}
		}
	}

	focus = {
		id = NZL_destroyer_effort
		icon = GFX_goal_generic_navy_anti_submarine
		prerequisite = { focus = NZL_expand_devonport_naval_base }
		mutually_exclusive = { focus = NZL_submarine_effort }
		x = -2
		y = 2
		relative_position_id = NZL_form_the_rnzn

		cost = 5

		ai_will_do = {
			factor = 20
		}

		available = {

		}

		bypass = {

		}

		cancel_if_invalid = yes
		continue_if_invalid = no
		available_if_capitulated = no

		completion_reward = {
			add_tech_bonus = {
				name = NZL_destroyer_effort
				bonus = 1.0
				ahead_reduction = 2
				uses = 1
				category = dd_tech
			}
		}
	}

	focus = {
		id = NZL_submarine_effort
		icon = GFX_goal_generic_navy_submarine
		prerequisite = { focus = NZL_expand_devonport_naval_base }
		mutually_exclusive = { focus = NZL_destroyer_effort }
		x = 0
		y = 2
		relative_position_id = NZL_form_the_rnzn

		cost = 5

		ai_will_do = {
			factor = 2
		}

		available = {

		}

		bypass = {

		}

		cancel_if_invalid = yes
		continue_if_invalid = no
		available_if_capitulated = no

		completion_reward = {
			add_tech_bonus = {
				name = NZL_submarine_effort
				bonus = 1.0
				ahead_reduction = 2
				uses = 1
				category = ss_tech
			}
		}
	}

	focus = {
		id = NZL_light_cruiser_effort
		icon = GFX_goal_generic_navy_cruiser
		prerequisite = { focus = NZL_destroyer_effort focus = NZL_submarine_effort }
		x = -2
		y = 3
		relative_position_id = NZL_form_the_rnzn

		cost = 5

		ai_will_do = {
			factor = 25
		}

		available = {

		}

		bypass = {

		}

		cancel_if_invalid = yes
		continue_if_invalid = no
		available_if_capitulated = no

		completion_reward = {
			add_tech_bonus = {
				name = NZL_light_cruiser_effort
				bonus = 1.0
				ahead_reduction = 2
				uses = 1
				category = cl_tech
			}
		}
	}

	focus = {
		id = NZL_capital_ship_effort
		icon = GFX_goal_generic_navy_battleship
		prerequisite = { focus = NZL_destroyer_effort focus = NZL_submarine_effort }
		x = 0
		y = 3
		relative_position_id = NZL_form_the_rnzn

		cost = 5

		ai_will_do = {
			factor = 25
		}

		available = {

		}

		bypass = {

		}

		cancel_if_invalid = yes
		continue_if_invalid = no
		available_if_capitulated = no

		complete_tooltip = {

		}

		completion_reward = {
			add_tech_bonus = {
				name = NZL_capital_ship_effort
				bonus = 1.0
				ahead_reduction = 2
				uses = 1
				category = bb_tech
				category = cv_tech
			}
		}
	}


	############################
	####### AIR SECTION ########
	############################

	focus = {
		id = NZL_expand_the_nzpaf
		icon = GFX_NZL_Royal_New_Zealand_Air_Force
		x = 13
		y = 0

		cost = 2

		ai_will_do = {
			factor = 2
		}

		available = {

		}

		bypass = {

		}

		cancel_if_invalid = yes
		continue_if_invalid = no
		available_if_capitulated = yes

		complete_tooltip = {

		}

		completion_reward = {
			if = {
				limit = {
					ENG = { has_tech = tactical_bomber1 }
				}
				add_equipment_to_stockpile = {
					type = tac_bomber_equipment_1
					amount = 100
					producer = ENG
				}
				else = {
					add_equipment_to_stockpile = {
						type = tac_bomber_equipment_0
						amount = 100
						producer = ENG
					}	
				}
			}
		}
	}

	focus = {
		id = NZL_form_the_rnzaf
		icon = GFX_goal_generic_build_airforce
		prerequisite = { focus = NZL_expand_the_nzpaf }
		x = 0
		y = 1
		relative_position_id = NZL_expand_the_nzpaf

		cost = 10

		ai_will_do = {
			factor = 25
		}

		available = {

		}

		bypass = {

		}

		cancel_if_invalid = yes
		continue_if_invalid = no
		available_if_capitulated = no

		complete_tooltip = {
			air_experience = 25
			random_state = {				
				limit = {
					has_state_flag = NZL_expand_the_nzpaf_AB
				}
				add_building_construction = {
					type = air_base
					level = 2
					instant_build = yes
				}
			}
			add_tech_bonus = {
				name = NZL_form_the_rnzaf
				bonus = 1.0
				uses = 1
				category = air_doctrine
			}
		}

		completion_reward = {
			air_experience = 25
			random_owned_controlled_state = {
				limit = {
					free_building_slots = {
						building = air_base
						size > 1
					}
				}
				add_building_construction = {
					type = air_base
					level = 2
					instant_build = yes
				}
				set_state_flag = NZL_expand_the_nzpaf_AB
			}
			add_tech_bonus = {
				name = NZL_form_the_rnzaf
				bonus = 1.0
				uses = 1
				category = air_doctrine
			}
		}
	}

	focus = {
		id = NZL_fighter_focus
		icon = GFX_goal_generic_air_fighter2
		prerequisite = { focus = NZL_form_the_rnzaf }
		mutually_exclusive = { focus = NZL_bomber_focus }
		x = -1
		y = 2
		relative_position_id = NZL_expand_the_nzpaf

		cost = 10

		ai_will_do = {
			factor = 25
		}

		available = {

		}

		bypass = {

		}

		cancel_if_invalid = yes
		continue_if_invalid = no
		available_if_capitulated = yes

		complete_tooltip = {

		}

		completion_reward = {
			add_tech_bonus = {
				name = NZL_fighter_focus
				bonus = 1.0
				uses = 1
				category = light_fighter
			}
		}
	}

	focus = {
		id = NZL_bomber_focus
		icon = GFX_goal_generic_occupy_start_war
		prerequisite = { focus = NZL_form_the_rnzaf }
		mutually_exclusive = { focus = NZL_fighter_focus }
		x = 1
		y = 2
		relative_position_id = NZL_expand_the_nzpaf

		cost = 10

		ai_will_do = {
			factor = 2
		}

		available = {

		}

		bypass = {

		}

		cancel_if_invalid = yes
		continue_if_invalid = no
		available_if_capitulated = yes

		complete_tooltip = {

		}

		completion_reward = {
			add_tech_bonus = {
				name = NZL_bomber_focus
				bonus = 1.00
				uses = 1
				category = tactical_bomber
			}
		}
	}

	focus = {
		id = NZL_defend_our_islands
		icon = GFX_goal_generic_air_naval_bomber
		prerequisite = { focus = NZL_form_the_rnzaf focus = NZL_coastal_defense }
		x = -3
		y = 2
		relative_position_id = NZL_expand_the_nzpaf

		cost = 10

		ai_will_do = {
			factor = 25
		}

		available = {

		}

		bypass = {

		}

		cancel_if_invalid = yes
		continue_if_invalid = no
		available_if_capitulated = yes

		complete_tooltip = {

		}

		completion_reward = {
			add_tech_bonus = {
				name = NZL_defend_our_islands
				bonus = 1.00
				uses = 2
				category = naval_air
			}
		}
	}

	focus = {
		id = NZL_modern_fighters
		icon = GFX_goal_generic_air_fighter
		prerequisite = { focus = NZL_fighter_focus focus = NZL_bomber_focus }
		mutually_exclusive = { focus = NZL_heavy_bombers }
		x = -1
		y = 3
		relative_position_id = NZL_expand_the_nzpaf

		cost = 10

		ai_will_do = {
			factor = 25
		}

		available = {

		}

		bypass = {

		}

		cancel_if_invalid = yes
		continue_if_invalid = no
		available_if_capitulated = yes

		complete_tooltip = {

		}

		completion_reward = {
			add_tech_bonus = {
				name = NZL_modern_fighters
				bonus = 1.0
				uses = 1
				technology = early_fighter
				technology = fighter1
				technology = fighter2
				category = cat_heavy_fighter
			}
		}
	}

	focus = {
		id = NZL_heavy_bombers
		icon = GFX_goal_generic_air_bomber
		prerequisite = { focus = NZL_fighter_focus focus = NZL_bomber_focus }
		mutually_exclusive = { focus = NZL_modern_fighters }
		x = 1
		y = 3
		relative_position_id = NZL_expand_the_nzpaf

		cost = 10

		ai_will_do = {
			factor = 2
		}

		available = {

		}

		bypass = {

		}

		cancel_if_invalid = yes
		continue_if_invalid = no
		available_if_capitulated = yes

		complete_tooltip = {

		}

		completion_reward = {
			add_tech_bonus = {
				name = NZL_heavy_bombers
				bonus = 1.0
				uses = 2
				category = tactical_bomber
			}
		}
	}

	
	############################
	##### INDUSTRY SECTION #####
	############################

	focus = {
		id = NZL_national_roads_board
		icon = GFX_goal_generic_construct_infrastructure
		x = 17
		y = 0

		cost = 5

		ai_will_do = {
			factor = 8
		}

		available = {

		}

		bypass = {

		}

		cancel_if_invalid = yes
		continue_if_invalid = no
		available_if_capitulated = no

		complete_tooltip = {
			random_state = {
				limit = {
					has_state_flag = NZL_national_roads_board_Inf1
				}
				add_building_construction = {
					type = infrastructure
					level = 2
					instant_build = yes
				}
			}

			random_state = {
				limit = {
					has_state_flag = NZL_national_roads_board_Inf2
				}
				add_building_construction = {
					type = infrastructure
					level = 2
					instant_build = yes
				}
			}
		}

		completion_reward = {
			284 = {
				
				add_building_construction = {
					type = infrastructure
					level = 2
					instant_build = yes
				}
				set_state_flag = NZL_national_roads_board_Inf1
			}

			723 = {
				
				add_building_construction = {
					type = infrastructure
					level = 2
					instant_build = yes
				}
				set_state_flag = NZL_national_roads_board_Inf2
			}
		}
	}

	focus = {
		id = NZL_new_zealand_steel
		icon = GFX_goal_generic_production2
		prerequisite = { focus = NZL_national_roads_board }
		x = -2
		y = 1
		relative_position_id = NZL_national_roads_board

		cost = 5

		ai_will_do = {
			factor = 25
		}

		available = {
		}

		bypass = {

		}

		cancel_if_invalid = yes
		continue_if_invalid = no
		available_if_capitulated = no

		complete_tooltip = {

		}

		completion_reward = {
			284 = {
				add_resource = {
					type = steel
					amount = 20
				}
			}
		}
	}

	focus = {
		id = NZL_taranaki_oil
		icon = GFX_goal_generic_oil_refinery
		prerequisite = { focus = NZL_national_roads_board }
		x = 0
		y = 1
		relative_position_id = NZL_national_roads_board

		cost = 5

		ai_will_do = {
			factor = 25
		}

		available = {
		}

		bypass = {

		}

		cancel_if_invalid = yes
		continue_if_invalid = no
		available_if_capitulated = no

		complete_tooltip = {

		}

		completion_reward = {
			284 = {
				add_resource = {
					type = oil
					amount = 20
				}
			}
		}
	}

	focus = {
		id = NZL_wairarapa_sheep_farms
		icon = GFX_GENERIC_Animal_Husbandry
		prerequisite = { focus = NZL_national_roads_board }
		x = 2
		y = 1
		relative_position_id = NZL_national_roads_board

		cost = 10

		ai_will_do = {
			factor = 25
			modifier = {
				factor = 2
				has_completed_focus = NZL_bureau_of_industry
			}
		}

		available = {

		}

		bypass = {

		}

		cancel_if_invalid = yes
		continue_if_invalid = no
		available_if_capitulated = no

		complete_tooltip = {

		}

		completion_reward = {
			add_ideas = NZL_wairarapa_sheep_farms
		}
	}

	focus = {
		id = NZL_bureau_of_industry
		icon = GFX_GENERIC_Military_Industrial_Complexes
		prerequisite = { focus = NZL_new_zealand_steel focus = NZL_taranaki_oil }
		x = 0
		y = 2
		relative_position_id = NZL_national_roads_board

		cost = 10

		ai_will_do = {
			factor = 25
			modifier = {
				factor = 2
				has_completed_focus = NZL_wairarapa_sheep_farms
			}
		}

		available = {

		}

		bypass = {

		}

		cancel_if_invalid = yes
		continue_if_invalid = no
		available_if_capitulated = no

		complete_tooltip = {
			random_state = {
				limit = {
					has_state_flag = NZL_bureau_of_industry_IC1
				}
				add_extra_state_shared_building_slots = 2
				add_building_construction = {
					type = industrial_complex
					level = 2
					instant_build = yes
				}
			}
		}

		completion_reward = {
			random_owned_controlled_state = {
				prioritize = { 284 723 }
				limit = {				
					free_building_slots = {
						building = industrial_complex
						size > 1
						include_locked = yes
					}
				}
				add_extra_state_shared_building_slots = 2
				add_building_construction = {
					type = industrial_complex
					level = 2
					instant_build = yes
				}
				set_state_flag = NZL_bureau_of_industry_IC1
			}
		}
	}

	focus = {
		id = NZL_department_of_scientific_and_industrial_research
		icon = GFX_focus_research
		prerequisite = { focus = NZL_bureau_of_industry }
		x = -1
		y = 3
		relative_position_id = NZL_national_roads_board

		cost = 10

		ai_will_do = {
			factor = 35
			modifier = {
				factor = 2
				has_completed_focus = NZL_heavy_bombers
			}
		}

		available = {

		}

		bypass = {

		}

		cancel_if_invalid = yes
		continue_if_invalid = no
		available_if_capitulated = yes

		complete_tooltip = {

		}

		completion_reward = {
			add_research_slot = 1
		}
	}

	focus = {
		id = NZL_industrial_conscription
		icon = GFX_GENERIC_Support_Privatization
		prerequisite = { focus = NZL_wairarapa_sheep_farms }
		prerequisite = { focus = NZL_bureau_of_industry }
		x = 1
		y = 3
		relative_position_id = NZL_national_roads_board

		cost = 10

		ai_will_do = {
			factor = 25
			modifier = {
				factor = 2
				has_completed_focus = NZL_domestic_arms_industry
			}
		}

		available = {

		}

		bypass = 1

		}

		cancel_if_invalid = yes
		continue_if_invalid = no		
		available_if_capitulated = no

		complete_tooltip = {
			random_state = {
				limit = {
					has_state_flag = NZL_industrial_conscription_AF
				}
				add_extra_state_shared_building_slots = 2
				add_building_construction = {
					type = arms_factory
					level = 2
					instant_build = yes
				}
			}
		}

		completion_reward = {
			random_owned_controlled_state = {
				prioritize = { 284 723 }
				limit = {
					free_building_slots = {
						building = arms_factory
						size > 1
						include_locked = yes
					}
				}
				add_extra_state_shared_building_slots = 2
				add_building_construction = {
					type = arms_factory
					level = 2
					instant_build = yes
				}
				set_state_flag = NZL_industrial_conscription_AF
			}
		}
	}

	focus = {
		id = NZL_think_big
		icon = GFX_GENERIC_Money
		prerequisite = { focus = NZL_industrial_conscription }
		prerequisite = { focus = NZL_domestic_arms_industry }
		x = 2
		y = 4
		relative_position_id = NZL_national_roads_board

		cost = 10

		ai_will_do = {
			factor = 25
			modifier = {
				factor = 2
				has_completed_focus = NZL_department_of_scientific_and_industrial_research
			}
		}

		available = {

		}

		bypass = {

		}

		cancel_if_invalid = yes
		continue_if_invalid = no
		available_if_capitulated = no

		complete_tooltip = {
			random_state = {
				limit = {
					has_state_flag = NZL_think_big_IC1
				}
				add_extra_state_shared_building_slots = 2
				add_building_construction = {
					type = industrial_complex
					level = 2
					instant_build = yes
				}
			}
			random_state = {
				limit = {
					has_state_flag = NZL_think_big_AF
				}
				add_extra_state_shared_building_slots = 1
				add_building_construction = {
					type = arms_factory
					level = 1
					instant_build = yes
				}
			}
		}

		completion_reward = {
			random_owned_controlled_state = {
				prioritize = { 284 723 }
				limit = {				
					free_building_slots = {
						building = industrial_complex
						size > 1
						include_locked = yes
					}
				}
				add_extra_state_shared_building_slots = 2
				add_building_construction = {
					type = industrial_complex
					level = 2
					instant_build = yes
				}
				set_state_flag = NZL_think_big_IC1
			}
			random_owned_controlled_state = {
				prioritize = { 284 723 }
				limit = {
					free_building_slots = {
						building = arms_factory
						size > 1
						include_locked = yes
					}
				}
				add_extra_state_shared_building_slots = 2
				add_building_construction = {
					type = arms_factory
					level = 2
					instant_build = yes
				}
				set_state_flag = NZL_think_big_AF
			}
		}
	}

	focus = {
		id = NZL_project_seal
		icon = GFX_focus_wonderweapons
		prerequisite = { focus = NZL_heavy_bombers focus = NZL_modern_fighters }
		prerequisite = { focus = NZL_department_of_scientific_and_industrial_research }
		x = -2
		y = 4
		relative_position_id = NZL_national_roads_board

		cost = 5

		ai_will_do = {
			factor = 35
		}

		available = {

		}

		bypass = {

		}

		cancel_if_invalid = yes
		continue_if_invalid = no
		available_if_capitulated = no

		complete_tooltip = {

		}

		completion_reward = {
			add_tech_bonus = {
				name = NZL_project_seal
				bonus = 1.0
				uses = 1
				category = nuclear
			}
		}
	}

	focus = {
		id = NZL_expand_the_university_of_auckland
		icon = GFX_focus_research
		prerequisite = { focus = NZL_think_big }
		prerequisite = { focus = NZL_department_of_scientific_and_industrial_research }
		x = 0
		y = 5
		relative_position_id = NZL_national_roads_board

		cost = 10

		ai_will_do = {
			factor = 35
		}

		available = {

		}

		bypass = {

		}

		cancel_if_invalid = yes
		continue_if_invalid = no
		available_if_capitulated = no

		completion_reward = {
			add_research_slot = 1
		}
	}
	
	############################
	####### ARMY SECTION #######
	############################
	
	focus = {
		id = NZL_army_reforms
		icon = GFX_NZL_New_Zealand_Army
		x = 22
		y = 0

		cost = 5

		ai_will_do = {
			factor = 2
		}

		available = {

		}

		bypass = {

		}

		cancel_if_invalid = yes
		continue_if_invalid = no
		available_if_capitulated = yes

		complete_tooltip = {

		}

		completion_reward = {
			army_experience = 25
			add_tech_bonus = {
				name = NZL_army_reforms
				bonus = 1.0
				uses = 1
				category = land_doctrine
			}
		}
	}

	focus = {
		id = NZL_charlton_automatic_rifle
		icon = GFX_goal_generic_small_arms
		prerequisite = { focus = NZL_army_reforms }
		x = -1
		y = 1
		relative_position_id = NZL_army_reforms

		cost = 5

		ai_will_do = {
			factor = 25
			modifier = {
				factor = 2
				has_completed_focus = NZL_industrial_conscription
			}
		}

		available = {

		}

		bypass = {

		}

		cancel_if_invalid = yes
		continue_if_invalid = no
		available_if_capitulated = yes

		complete_tooltip = {

		}

		completion_reward = {
			add_tech_bonus = {
				name = NZL_charlton_automatic_rifle
				bonus = 1.0
				uses = 1
				category = infantry_weapons
			}
		}
	}

	focus = {
		id = NZL_bob_semple_tank 
		icon = GFX_focus_NZL_bob_semple_tank		#VEHICLE OF GLORIOUS DESIGN BOB SEMPLE TANK MUST HAVE UNIQUE ICON
		prerequisite = { focus = NZL_army_reforms }
		x = 1
		y = 1
		relative_position_id = NZL_army_reforms

		cost = 5

		ai_will_do = {
			factor = 25
		}

		available = {

		}

		bypass = {

		}

		cancel_if_invalid = yes
		continue_if_invalid = no
		available_if_capitulated = yes

		complete_tooltip = {

		}

		completion_reward = {
			add_ideas = NZL_bob_semple_tank
			custom_effect_tooltip = NZL_bob_semple_tank_tt
			hidden_effect = { set_technology = { basic_light_tank  = 1 } }
		}
	}

	focus = {
		id = NZL_domestic_arms_industry
		icon = GFX_goal_generic_construct_mil_factory
		prerequisite = { focus = NZL_charlton_automatic_rifle }
		x = -1
		y = 2
		relative_position_id = NZL_army_reforms

		cost = 5

		ai_will_do = {
			factor = 25
			modifier = {
				factor = 2
				has_completed_focus = NZL_industrial_conscription
			}
		}

		available = {

		}

		bypass = {

		}

		cancel_if_invalid = yes
		continue_if_invalid = no
		available_if_capitulated = no

		complete_tooltip = {
			random_state = {
				limit = {
					has_state_flag = NZL_domestic_arms_industry_AF
				}
				add_extra_state_shared_building_slots = 2
				add_building_construction = {
					type = arms_factory
					level = 2
					instant_build = yes
				}
			}
		}

		completion_reward = {
			random_owned_controlled_state = {
				prioritize = { 284 723 }
				limit = {
					free_building_slots = {
						building = arms_factory
						size > 1
						include_locked = yes
					}
				}
				add_extra_state_shared_building_slots = 2
				add_building_construction = {
					type = arms_factory
					level = 2
					instant_build = yes
				}
				set_state_flag = NZL_domestic_arms_industry_AF
			}
		}
	}

	focus = {
		id = NZL_schofield_tank
		icon = GFX_goal_generic_army_tanks
		prerequisite = { focus = NZL_bob_semple_tank }
		x = 1
		y = 2
		relative_position_id = NZL_army_reforms

		cost = 10

		ai_will_do = {
			factor = 25
		}

		available = {

		}

		bypass = {

		}

		cancel_if_invalid = yes
		continue_if_invalid = no
		available_if_capitulated = yes

		complete_tooltip = {

		}

		completion_reward = {
			add_tech_bonus = {
				name = NZL_schofield_tank
				bonus = 1.0
				uses = 1
				category = cat_light_armor
			}
		}
	}

	focus = {
		id = NZL_long_range_patrol
		icon = GFX_goal_generic_special_forces
		prerequisite = { focus = NZL_domestic_arms_industry }
		x = -1
		y = 3
		relative_position_id = NZL_army_reforms

		cost = 10

		ai_will_do = {
			factor = 25
		}

		available = {

		}

		bypass = {

		}

		cancel_if_invalid = yes
		continue_if_invalid = no
		available_if_capitulated = yes

		complete_tooltip = {

		}

		completion_reward = {
			add_tech_bonus = {
				name = NZL_long_range_patrol
				bonus = 1.00
				uses = 2
				category = marine_tech
			}
		}
	}

	focus = {
		id = NZL_artillery_focus
		icon = GFX_goal_generic_army_artillery
		prerequisite = { focus = NZL_schofield_tank }
		x = 1
		y = 3
		relative_position_id = NZL_army_reforms

		cost = 10

		ai_will_do = {
			factor = 25
		}

		available = {

		}

		bypass = {

		}

		cancel_if_invalid = yes
		continue_if_invalid = no
		available_if_capitulated = yes

		complete_tooltip = {

		}

		completion_reward = {
			add_tech_bonus = {
				name = NZL_artillery_focus
				bonus = 1.00
				uses = 1
				category = artillery
			}
			add_tech_bonus = {
				name = rocketry
				bonus = 1.0
				uses = 1
				category = rocketry
			}
		}
	}

	focus = {
		id = NZL_big_bob_tank
		icon = GFX_goal_generic_build_tank
		prerequisite = { focus = NZL_artillery_focus }
		x = 1
		y = 4
		relative_position_id = NZL_army_reforms

		cost = 10

		ai_will_do = {
			factor = 25
		}

		available = {

		}

		bypass = {

		}

		cancel_if_invalid = yes
		continue_if_invalid = no
		available_if_capitulated = yes

		complete_tooltip = {

		}

		completion_reward = {
			add_tech_bonus = {
				name = NZL_big_bob_tank
				ahead_reduction = 2
				bonus = 1.0
				uses = 1
				technology = super_heavy_tank
			}
			add_tech_bonus = {
				name = motorized_bonus
				bonus = 1.0
				uses = 1
				category = motorized_equipment
			}
		}
	}

	############################
	##### POLITICS SECTION #####
	############################

	focus = {
		id = NZL_the_first_labor_government
		icon = GFX_ENG_General_Elections
		x = 3
		y = 0

		cost = 10

		ai_will_do = {
			factor = 2
		}

		available = {

		}

		bypass = {

		}

		cancel_if_invalid = yes
		continue_if_invalid = no
		available_if_capitulated = no

		complete_tooltip = {

		}

		completion_reward = {
			add_ideas = NZL_first_labor_government
		}
	}

	############################
	## SHARED POLITICS SECTION #
	############################

	focus = {
		id = NZL_ratana_alliance
		icon = GFX_ENG_Reinforce_the_Commonwealth
		prerequisite = { focus = NZL_the_first_labor_government }
		x = -2
		y = 1
		relative_position_id = NZL_the_first_labor_government

		cost = 10

		ai_will_do = {
			factor = 25
		}

		available = {

		}

		bypass = {

		}

		cancel_if_invalid = yes
		continue_if_invalid = no
		available_if_capitulated = no

		complete_tooltip = {

		}

		completion_reward = {
			add_ideas = NZL_ratana_alliance
		}
	}

	focus = {
		id = NZL_maori_affairs_act
		icon = GFX_GENERIC_Justice_System_Socialist
		prerequisite = { focus = NZL_ratana_alliance }
		x = -1
		y = 1
		relative_position_id = NZL_ratana_alliance

		cost = 5

		ai_will_do = {
			factor = 25
		}

		available = {
		}

		bypass = {

		}

		cancel_if_invalid = yes
		continue_if_invalid = no
		available_if_capitulated = no

		complete_tooltip = {

		}

		completion_reward = {
			284 = {
				add_extra_state_shared_building_slots = 1
			}
			723 = {
				add_extra_state_shared_building_slots = 1
			}
			add_stability = -0.025
		}
	}

	focus = {
		id = NZL_social_security_act
		icon = GFX_GENERIC_Justice_System_Socialist
		prerequisite = { focus = NZL_ratana_alliance }
		x = 1
		y = 1
		relative_position_id = NZL_ratana_alliance

		cost = 10

		ai_will_do = {
			factor = 25
		}

		available = {

		}

		bypass = {

		}

		cancel_if_invalid = yes
		continue_if_invalid = no
		available_if_capitulated = no

		complete_tooltip = {

		}

		completion_reward = {
			add_ideas = NZL_social_security_act
		}
	}

	focus = {
		id = NZL_the_manpower_act
		icon = GFX_SOV_Socialist_Justice
		prerequisite = { focus = NZL_social_security_act focus = NZL_maori_affairs_act }
		x = 0
		y = 2
		relative_position_id = NZL_ratana_alliance

		cost = 5

		ai_will_do = {
			factor = 25
		}

		available = {

		}

		bypass = {

		}

		cancel_if_invalid = yes
		continue_if_invalid = no
		available_if_capitulated = no

		complete_tooltip = {

		}

		completion_reward = {
			add_ideas = NZL_the_manpower_act
		}
	}

	focus = {
		id = NZL_amend_the_maori_affairs_act
		icon = GFX_GENERIC_Justice_System
		prerequisite = { focus = NZL_the_manpower_act }
		x = 0
		y = 3
		relative_position_id = NZL_ratana_alliance

		cost = 10

		ai_will_do = {
			factor = 1
		}

		available = {

		}

		bypass = {

		}

		cancel_if_invalid = yes
		continue_if_invalid = no
		available_if_capitulated = no

		complete_tooltip = {

		}

		completion_reward = {
			284 = {
				add_extra_state_shared_building_slots = 2
			}
			723 = {
				add_extra_state_shared_building_slots = 2
			}
			add_stability = -0.05
		}
	}

	focus = {
		id = NZL_maori_conscription
		icon = GFX_GENERIC_Justice_System
		prerequisite = { focus = NZL_amend_the_maori_affairs_act }
		x = 0
		y = 4
		relative_position_id = NZL_ratana_alliance

		cost = 10

		ai_will_do = {
			factor = 25
		}

		available = {

		}

		bypass = {

		}

		cancel_if_invalid = yes
		continue_if_invalid = no
		available_if_capitulated = no

		complete_tooltip = {

		}

		completion_reward = {
			add_ideas = NZL_maori_conscription
		}
	}


	#########################
	### THE CLASH SECTION ###
	#########################

	focus = {
		id = NZL_strengthen_the_commonwealth
		icon = GFX_ENG_Invest_in_our_Dominions
		prerequisite = { focus = NZL_the_first_labor_government }
		x = 1
		y = 1
		relative_position_id = NZL_the_first_labor_government

		cost = 10

		ai_will_do = {
			factor = 30
		}

		available = {

		}

		bypass = {

		}

		cancel_if_invalid = yes
		continue_if_invalid = no
		available_if_capitulated = no

		complete_tooltip = {

		}

		completion_reward = {
			modify_tech_sharing_bonus = {
			  	id = commonwealth_research
			   	bonus = 0.05
			}
			add_political_power = 100
			add_opinion_modifier = { target = ENG modifier = NZL_strengthen_ties } 
			ENG = { add_opinion_modifier = { target = NZL modifier = NZL_strengthen_ties } }
		}
	}

	############################
	# GO COMMONWEALTH SECTION ##
	############################

	focus = {
		id = NZL_arrest_pacifist_leaders
		icon = GFX_GENERIC_Mass_Arrest_Political_Enemies
		prerequisite = { focus = NZL_strengthen_the_commonwealth }
		x = 0
		y = 1
		relative_position_id = NZL_strengthen_the_commonwealth

		cost = 5

		ai_will_do = {
			factor = 25
		}

		available = {

		}

		bypass = {

		}

		cancel_if_invalid = yes
		continue_if_invalid = no
		available_if_capitulated = no

		complete_tooltip = {

		}

		completion_reward = {
			add_ideas = NZL_stomp_out_pacifism
		}
	}

	focus = {
		id = NZL_technology_sharing_with_britain
		icon = GFX_goal_tfv_generic_tech_sharing
		prerequisite = { focus = NZL_arrest_pacifist_leaders }
		x = 0
		y = 2
		relative_position_id = NZL_strengthen_the_commonwealth

		cost = 10

		ai_will_do = {
			factor = 30
		}

		available = {
		}

		bypass = {

		}

		cancel_if_invalid = yes
		continue_if_invalid = no
		available_if_capitulated = yes

		complete_tooltip = {

		}

		completion_reward = {
			modify_tech_sharing_bonus = {
 				id = commonwealth_research
 				bonus = 0.05  # we get 20% higher bonus from this group
			}
		}
	}
