
focus_tree = {
	id = british_focus
	
	country = {
		factor = 0
		
		modifier = {
			add = 10
			tag = ENG
		}
	}
	
	default = no

	
	
	
	
	
	
	
	
	
	
	
	
	
	focus = {
		id = crypto_bomb_focus
		available = {
			has_war_with = GER
		}
		
		bypass = {

		}
		
		icon = GFX_focus_generic_cryptologic_bomb
		x = 0
		y = 0
		cost = 10
		ai_will_do = {
			factor = 1
		}

		available_if_capitulated = yes

		completion_reward = {
			add_tech_bonus = {
				name = codebreaking_bonus
				bonus = 1.0
				uses = 3
				category = decryption_tech
				category = computing_tech
			}
		}
	}
	
	focus = {
		id = tizard_mission_focus
		available = {						
		} 
		prerequisite = { focus = crypto_bomb_focus }
		prerequisite = { focus = radar_focus }
		icon = GFX_goal_generic_scientific_exchange
		x = 0
		y = 3
		relative_position_id = crypto_bomb_focus
		cost = 10
		ai_will_do = {
			factor = 1
		}	
		completion_reward = {
		
				add_tech_bonus = {
			name = tizard_mission_focus
			bonus = 1.0
			category = light_fighter
		}
		add_tech_bonus = {
			name = tizard_mission_focus
			bonus = 1.0
			uses = 2
			category = radar_tech
		}
			USA = {
			
					add_tech_bonus = {
			name = tizard_mission_focus
			uses = 1
			bonus = 1.0
			category = light_fighter
		}
		add_tech_bonus = {
			name = tizard_mission_focus
			bonus = 1.0
			uses = 2
			category = radar_tech
		}
			
			}
		}
	}
	focus = {
		id = maud_focus
		available = { }
		prerequisite = { focus = tizard_mission_focus }
		icon = GFX_focus_wonderweapons
		x = 0
		y = 1
		relative_position_id = tizard_mission_focus
		cost = 10
		ai_will_do = {
			factor = 1
		}

		available_if_capitulated = yes

		completion_reward = {
			add_tech_bonus = {
				name = maud_focus
				bonus = 1.0
				uses = 1
				category = nuclear
			}
		}
	}
	
	
	focus = {
		id = limited_rearmament_focus
		icon = GFX_focus_ENG_limited
		x = 5
		y = 0
		cost = 10
		ai_will_do = {
			factor = 1
		}

		bypass = {

		}

		available_if_capitulated = yes

		complete_tooltip = {
			every_state = {
				limit = { has_state_flag = ENG_limited_rearmament_focus_2IC }
				add_extra_state_shared_building_slots = 4
				add_building_construction = {
					type = industrial_complex
					level = 4
					instant_build = yes
				}
			}
		}

		completion_reward = {
			128 = {
				add_extra_state_shared_building_slots = 2
				add_building_construction = {
					type = industrial_complex
					level = 2
					instant_build = yes
				}
				set_state_flag = ENG_limited_rearmament_focus_2IC
			}
			130 = {
				add_extra_state_shared_building_slots = 2
				add_building_construction = {
					type = industrial_complex
					level = 2
					instant_build = yes
				
				}
				set_state_flag = ENG_limited_rearmament_focus_2IC
			}
		}
	}
	focus = {
		id = ENG_motorized_focus
		prerequisite = { focus = limited_rearmament_focus }
		available = { 

          date>1937.1.1		
		}
		icon = GFX_goal_generic_army_motorized
		x = 0
		y = 1
		relative_position_id = limited_rearmament_focus
		cost = 2
		ai_will_do = {
			factor = 1
		}

		available_if_capitulated = yes

		completion_reward = {
			add_tech_bonus = {
				name = armor_bonus
				bonus = 1.0
				uses = 1
				category = motorized_equipment
			}
			custom_effect_tooltip = "Applies on Mechanized"
		}
	}
	focus = {
		id = ENG_tank_focus
		prerequisite = { focus = ENG_motorized_focus }
		icon = GFX_ENG_Infantry_Tank
		x = 0
		y = 1
		relative_position_id = ENG_motorized_focus
		cost = 3
		ai_will_do = {
			factor = 1
		}

		available_if_capitulated = yes

		completion_reward = {
			army_experience=200
			add_ideas=ENG_Tank_upgrade_cost
			
			add_tech_bonus = {
		  name = armor_bonus
		  ahead_reduction = 2
		  technology = basic_medium_tank
		}
			add_tech_bonus = {
				name = armor_bonus
				bonus = 1
				uses = 2
				category = armor
			}
		}
	}
	
	focus = {
		id = air_defense_focus
		prerequisite = { focus = limited_rearmament_focus }
		available = {
		}

		continue_if_invalid = yes
		available_if_capitulated = yes

		icon = GFX_goal_generic_construct_military
		x = -4
		y = 1
		relative_position_id = limited_rearmament_focus
		cost = 10
		ai_will_do = {
			factor = 1
		}

		

		complete_tooltip = {
			air_experience = 25
			if = {
				limit = { has_country_flag = air_defense_focus_built_max }
				custom_effect_tooltip = air_defense_focus_tt			
			}
			if = {
				limit = { NOT = { has_country_flag = air_defense_focus_built_max } }
				every_state = {
					limit = { has_state_flag = ENG_air_defense_focus_built_2 }
					add_building_construction = {
						type = anti_air_building
						level = 2
						instant_build = yes
					}
				}
			}
		}

		completion_reward = {
			air_experience = 25
			
				
					123 = {
						set_building_level = {
							type = anti_air_building
							level = 5
							instant_build = yes
						}
					}
					125 = {
						set_building_level = {
							type = anti_air_building
							level = 5
							instant_build = yes
						}
					}
					127 = {
						set_building_level = {
							type = anti_air_building
							level = 5
							instant_build = yes
						}
					}
					130 = {
						set_building_level = {
							type = anti_air_building
							level = 5
							instant_build = yes
						}
					}
					132 = {
						set_building_level = {
							type = anti_air_building
							level = 5
							instant_build = yes
						}
					}
					128 = {
						add_building_construction = {
							type = anti_air_building
							level = 2
							instant_build = yes
						}
					}
					129 = {
						add_building_construction = {
							type = anti_air_building
							level = 2
							instant_build = yes
						}
					}
				
				
			}
		
	}

	focus = {
		id = radar_focus
		prerequisite = { focus = air_defense_focus }
		icon = GFX_ENG_Dowding_System
		x = 0
		y = 1
		relative_position_id = air_defense_focus
		cost = 10
		ai_will_do = {
			factor = 1
		}

		available_if_capitulated = yes

		completion_reward = {
			air_experience = 25
			add_tech_bonus = {
				name = radar_focus
				bonus = 1.0
				uses = 3
				category = radar_tech
			}
		}
	}
	
	focus = {
		id = shadow_scheme_focus
		prerequisite = { focus = limited_rearmament_focus }
		available = {
			or = {threat > 0.05
			date > 1936.9.1
			}
		}

		continue_if_invalid = yes
		available_if_capitulated = yes
		
		icon = GFX_goal_generic_construct_mil_factory
		x = -2
		y = 1
		relative_position_id = limited_rearmament_focus
		cost = 10
		ai_will_do = {
			factor = 1
		}	
		completion_reward = {
			custom_effect_tooltip = shadow_scheme_focus_tt
			
		}
	}

	focus = {
		id = uk_industrial_focus
		text = industrial_effort
		prerequisite = { focus = shadow_scheme_focus }
		icon = GFX_goal_generic_construct_civ_factory
		x = 0
		y = 1
		relative_position_id = shadow_scheme_focus
		cost = 10
		ai_will_do = {
			factor = 1
		}	

		available_if_capitulated = yes

		completion_reward = {
			add_tech_bonus = {
				name = industrial_bonus
				bonus = 1.00
				uses = 2
				technology = assembly_line_production
				technology = concentrated_industry4
				technology = dispersed_industry4
				technology = construction4
			}
		}
	}

	focus = {
		id = uk_extra_tech_slot
		text = extra_tech_slot
		icon = GFX_focus_research
		prerequisite = { focus = uk_industrial_focus }
		x = 0
		y = 1
		relative_position_id = uk_industrial_focus
		cost = 10

		available_if_capitulated = yes

		completion_reward = {
			add_research_slot = 1
		}
	}
	
	focus = {
		id = general_rearmament_focus
		prerequisite = { focus = limited_rearmament_focus }
		available = {
			if = {
				limit = {
					has_dlc = "Man the Guns"
				}
				OR = {
					threat > 0.1 
					has_war = yes
					date > 1937.10.1
					
				}
			}
			if = {
				limit = {
					NOT = { has_dlc = "Man the Guns" }
				}
				OR = {
					threat > 0.1 
					has_war = yes
					date > 1938.1.1
				}
			}
		}

		continue_if_invalid = yes

		icon = GFX_focus_ENG_general
		x = 4
		y = 1
		relative_position_id = limited_rearmament_focus
		cost = 10
		ai_will_do = {
			factor = 1
		}	
		completion_reward = {
			add_ideas = british_austerity_idea
		}
	}

	focus = {
		id = ENG_special_air_service
		prerequisite = { focus = general_rearmament_focus }
		available = { 
			
		}

		continue_if_invalid = yes

		icon = GFX_ENG_Red_Devils
		x = 0
		y = 1
		relative_position_id = general_rearmament_focus
		cost = 5
		ai_will_do = {
			factor = 1
		}	
		completion_reward = {
			add_ideas = ENG_special_air_service_idea
		 set_technology = {
                                  paratroopers = 1 
					}
			custom_effect_tooltip = available_political_advisor
			show_ideas_tooltip = ENG_david_stirling
		}
	}
	
	focus = {
		id = royal_ordinance_focus
		available = {
		}
		prerequisite = { focus = uk_industrial_focus }
		icon = GFX_goal_generic_construct_mil_factory
		x = -1
		y = 2
		relative_position_id = uk_industrial_focus
		cost = 10
		ai_will_do = {
			factor = 1
		}

		continue_if_invalid = yes

		bypass = {

		}
		complete_tooltip = {
			every_state = {
				limit = { has_state_flag = royal_ordinance_focus_2AF }
				add_extra_state_shared_building_slots = 2
				add_building_construction = {
					type = arms_factory
					level = 2
					instant_build = yes
				}
			}
			
		}
		completion_reward = {
			127 = {
				add_extra_state_shared_building_slots = 2
				add_building_construction = {
					type = arms_factory
					level = 2
					instant_build = yes
				}
				set_state_flag = royal_ordinance_focus_2AF
			}
			131 = {
				add_extra_state_shared_building_slots = 2
				add_building_construction = {
					type = arms_factory
					level = 2
					instant_build = yes
				}
				set_state_flag = royal_ordinance_focus_2AF
			}
			121 = {
				add_extra_state_shared_building_slots = 2
				add_building_construction = {
					type = arms_factory
					level = 2
					instant_build = yes
				}
				set_state_flag = royal_ordinance_focus_2AF
			}
		}
	}
	
	focus = {
		id = uk_small_arms_focus
		prerequisite = { focus = royal_ordinance_focus }
		icon = GFX_goal_generic_production2
		x = 1
		y = 1
		relative_position_id = royal_ordinance_focus
		cost = 10
		ai_will_do = {
			factor = 1
		}

		available_if_capitulated = yes

		completion_reward = {
			add_ideas = british_arms_discount
		}
	}
	focus = {
		id = UK_secret_focus
		prerequisite = { focus = royal_ordinance_focus }
		prerequisite = { focus = maud_focus }
		icon = GFX_goal_generic_secret_weapon
		x = -1
		y = 1
		relative_position_id = royal_ordinance_focus
		cost = 10
		ai_will_do = {
			factor = 1
		}

		available_if_capitulated = yes

		completion_reward = {
			add_tech_bonus = {
				name = UK_secret_focus
				bonus = 1.0
				uses = 2
				category = electronics
			}
			add_tech_bonus = {
				name = UK_secret_focus
				bonus = 1.0
				uses = 2
				category = rocketry
			}
			add_tech_bonus = {
				name = UK_secret_focus
				bonus = 1.0
				uses = 1
				category = nuclear
			}
		}
	}
	focus = {
		id = air_rearmament_focus
		prerequisite = { focus = general_rearmament_focus }
		icon = GFX_focus_ENG_air_rearm
		x = -2
		y = 1
		relative_position_id = general_rearmament_focus
		cost = 5
		ai_will_do = {
			factor = 3
		}

		bypass = {
		}

		complete_tooltip = {
		}

		completion_reward = {
			air_experience = 25
			127 = {
				set_building_level = {
					type = air_base
					level = 10
					instant_build = yes
				}
			}
			123 = {
				set_building_level = {
					type = air_base
					level = 10
					instant_build = yes
				}
			}
			338 = {
				set_building_level = {
					type = air_base
					level = 10
					instant_build = yes
				}
			}
			125 = {
				set_building_level = {
					type = air_base
					level = 10
					instant_build = yes
				}
			}
		}
	}

	focus = {
		id = ENG_chiefs_of_staff_committee
		prerequisite = { focus = air_rearmament_focus }
		prerequisite = { focus = naval_rearmament_focus }
		available = { 
			
		}

		continue_if_invalid = yes

		icon = GFX_focus_eng_chiefs_of_staff_committee
		x = 2
		y = 1
		relative_position_id = air_rearmament_focus
		cost = 5
		ai_will_do = {
			factor = 1
		}	
		completion_reward = {
			army_experience = 10
			navy_experience = 10
			air_experience = 10
			add_ideas = ENG_chiefs_of_staff_committee_idea
		}
	}

	focus = {
		id = fighter_command_focus
		prerequisite = { focus = air_rearmament_focus }
		icon = GFX_ENG_Spitfire
		x = -1
		y = 2
		relative_position_id = air_rearmament_focus
		cost = 5
		ai_will_do = {
			factor = 3
		}

		available_if_capitulated = yes

		completion_reward = {
			
			air_experience = 50
			add_tech_bonus = {
				bonus = 2.0
				uses = 10
				category = air_doctrine
			}
			
			
			
			add_tech_bonus = {
				name = fighter_command_focus
				bonus = 1.0
				uses = 2
				category = light_fighter
				category = cat_heavy_fighter
			
			
			}
		 set_technology = {
						fighter2 = 1
					}
		
		
		
		
		}
	}
	focus = {
		id = bomber_command_focus
		prerequisite = { focus = air_rearmament_focus }
		icon = GFX_goal_generic_air_bomber
		x = 0
		y = 1
		relative_position_id = air_rearmament_focus
		cost = 5
		ai_will_do = {
			factor = 1
		}

		available_if_capitulated = yes

		completion_reward = {
			air_experience = 25
			add_tech_bonus = {
				name = bomber_command_focus
				bonus = 1.0
				uses = 2
				category = tactical_bomber
			}
		}
	}
	focus = {
		id = coastal_command_focus
		prerequisite = { focus = air_rearmament_focus }
		icon = GFX_goal_generic_air_naval_bomber
		x = 1
		y = 2
		relative_position_id = air_rearmament_focus
		cost = 5
		ai_will_do = {
			factor = 1
		}

		available_if_capitulated = yes

		completion_reward = {
			air_experience = 50
			add_tech_bonus = {
				name = coastal_command_focus
				bonus = 1.0
				uses = 2
				category = naval_bomber
				category = cas_bomber
			}
		}
	}
	focus = {
		id = aircraft_production_focus
		prerequisite = { focus = fighter_command_focus focus = bomber_command_focus focus = coastal_command_focus }
		icon = GFX_goal_generic_air_production
		x = 1
		y = 1
		relative_position_id = fighter_command_focus
		cost = 5
		ai_will_do = {
			factor = 3
		}

		available_if_capitulated = yes

		completion_reward = {
			air_experience = 150
			add_ideas = british_fighter_discount
		}
	}
	focus = {
		id = uk_jet_focus
		prerequisite = { focus = aircraft_production_focus }
		icon = GFX_goal_generic_build_airforce
		x = 0
		y = 1
		relative_position_id = aircraft_production_focus
		cost = 10
		ai_will_do = {
			factor = 1
		}

		available_if_capitulated = yes

		completion_reward = {
			add_tech_bonus = {
				name = uk_jet_focus
				bonus = 1.0
				uses = 4
				category = jet_technology
			}
		}
	}
	focus = {
		id = naval_rearmament_focus
		prerequisite = { focus = general_rearmament_focus }
		icon = GFX_ENG_Royal_Navy 
		x = 2
		y = 1
		relative_position_id = general_rearmament_focus
		cost = 5
		ai_will_do = {
			factor = 1
		}

		available_if_capitulated = yes

		bypass = {

		}

		

		completion_reward = {
			navy_experience = 50
			136 = {
				add_extra_state_shared_building_slots = 5
				add_building_construction = {
					type = dockyard
					level = 5
					instant_build = yes
				}
				set_state_flag = ENG_naval_rearmament_focus_1dockyard
			}
			123 = {
				add_extra_state_shared_building_slots = 5
				add_building_construction = {
					type = dockyard
					level = 5
					instant_build = yes
				}
				set_state_flag = ENG_naval_rearmament_focus_1dockyard
			}
		}
	}

	#focus = {
#		id = ENG_anti_non_contact_committee
#		prerequisite = { focus = naval_rearmament_focus }
#		icon = GFX_goal_generic_occupy_states_coastal
#		x = 2
#		y = 1
#		relative_position_id = naval_rearmament_focus
#		cost = 10
#		ai_will_do = {
#			factor = 1
	#	}
#
	#	allow_branch = {
	#		has_dlc = "Man the Guns"
#		}
#
#		available_if_capitulated = yes
#
#		completion_reward = {
#			add_tech_bonus = {
	#			name = ENG_anti_non_contact_committee
#				bonus = 1.0
#				uses = 1
	#			category = naval_minelaying
#			}
#			add_tech_bonus = {
#				name = ENG_anti_non_contact_committee
#				bonus = 1.0
#				uses = 2
#				category = naval_minesweeping
#			}
#		}
#	}

	focus = {
		id = ENG_secure_the_imperial_shipping_routes
		prerequisite = { focus = naval_rearmament_focus }
		prerequisite = { focus = uk_service_focus }
		icon = GFX_focus_generic_cruiser2
		x = 2
		y = 1
		offset = {
			x = -1
			y = 0
			trigger = {
				NOT = { has_dlc = "Man the Guns" }
			}
		}
		relative_position_id = naval_rearmament_focus
		cost = 5
		ai_will_do = {
			factor = 1
		}

		available_if_capitulated = no

		completion_reward = {
			add_tech_bonus = {
				name = ENG_secure_the_imperial_shipping_routes
				bonus = 1.0
				uses = 2
				category = cl_tech
			}
			add_ideas = ENG_secure_the_imperial_shipping_routes
		}
	}

	focus = {
		id = uk_destroyer_focus
		prerequisite = { focus = naval_rearmament_focus }
		icon = GFX_focus_generic_destroyer
		x = -1
		y = 2
		relative_position_id = naval_rearmament_focus
		cost = 5
		ai_will_do = {
			factor = 1
		}

		available_if_capitulated = yes

		completion_reward = {
			add_tech_bonus = {
				name = dd_bonus
				bonus = 1.0
				uses = 2
				category = dd_tech
			}
		}
	}

	focus = {
		id = ENG_a_s_warfare
		prerequisite = { focus = uk_destroyer_focus }
		icon = GFX_goal_generic_navy_anti_submarine
		x = 0
		y = 2
		relative_position_id = uk_destroyer_focus
		cost = 5
		ai_will_do = {
			factor = 1
		}

		available_if_capitulated = yes

		allow_branch = {
			has_dlc = "Man the Guns"
		}

		completion_reward = {
			add_tech_bonus = {
				name = ENG_asw_warfare
				bonus = 1.0
				ahead_reduction = 2
				uses = 2
				category = asw_tech
			}	
		}
	}

	focus = {
		id = uk_convoy_focus
		prerequisite = { focus = uk_destroyer_focus }
		icon = GFX_goal_generic_navy_cruiser
		x = -1
		y = 1
		relative_position_id = uk_destroyer_focus
		cost = 5
		ai_will_do = {
			factor = 1
		}

		available_if_capitulated = yes

		completion_reward = {
			add_ideas = british_convoy_discount
		}
	}

	focus = {
		id = ENG_anti_submarine_training_school
		prerequisite = { focus = uk_convoy_focus }
		icon = GFX_goal_generic_navy_doctrines_tactics
		x = 0
		y = 2
		offset = {
			x = 0
			y = -1
			trigger = {
				NOT = { has_dlc = "Man the Guns" }
			}
		}
		relative_position_id = uk_convoy_focus
		cost = 5
		ai_will_do = {
			factor = 1
		}

		available_if_capitulated = yes

		completion_reward = {
			add_tech_bonus = {
				name = ENG_anti_submarine_training_school
				bonus = 1.0
				uses = 2
				category = convoy_defense_tree
			}
			add_ideas = ENG_anti_submarine_training_school
		}
	}

	focus = {
		id = uk_waves_focus
		prerequisite = { focus = naval_rearmament_focus }
		icon = GFX_focus_ENG_brittania
		x = 1
		y = 2
		relative_position_id = naval_rearmament_focus
		cost = 5
		ai_will_do = {
			factor = 1
		}

		available_if_capitulated = yes

		completion_reward = {
			add_tech_bonus = {
				name = uk_waves_focus
				bonus = 1.0
				uses = 3
				category = naval_doctrine
			}
		}
	}
	focus = {
		id = uk_carrier_focus
		prerequisite = { focus = uk_waves_focus }
		mutually_exclusive = { focus = uk_battleship_focus }
		icon = GFX_goal_generic_navy_carrier
		x = -1
		y = 1
		relative_position_id = uk_waves_focus
		cost = 5
		ai_will_do = {
			factor = 0.25
		}

		available_if_capitulated = yes

		completion_reward = {
			navy_experience = 25
			add_tech_bonus = {
				name = uk_carrier_focus
				bonus = 1.0
				uses = 2
				category = cv_tech
			}
			
		}
	}
	focus = {
		id = uk_battleship_focus
		prerequisite = { focus = uk_waves_focus }
		mutually_exclusive = { focus = uk_carrier_focus }
		icon = GFX_goal_generic_navy_battleship
		x = 1
		y = 1
		relative_position_id = uk_waves_focus
		cost = 5
		ai_will_do = {
			factor = 1
		}

		available_if_capitulated = yes

		completion_reward = {
			navy_experience = 25
			add_tech_bonus = {
				name = uk_battleship_focus
				bonus = 1.0
				uses = 2
				category = bb_tech
			}
		}
	}
	focus = {
		id = uk_amphibious_focus
		prerequisite = { focus = naval_rearmament_focus }
		icon = GFX_goal_generic_amphibious_assault
		x = 0
		y = 1
		relative_position_id = naval_rearmament_focus
		cost = 5
		ai_will_do = {
			factor = 1
		}

		available_if_capitulated = yes	

		completion_reward = {
			add_tech_bonus = {
				name = uk_amphibious_focus
				bonus = 1.0
				uses = 1
				category = marine_tech
			}
			add_tech_bonus = {
				name = uk_amphibious_focus
				bonus = 1.0
				uses = 2
				category = tp_tech
			}
		}
	}

	focus = {
		id = ENG_expand_the_repair_yards
		prerequisite = { focus = uk_battleship_focus focus = uk_carrier_focus }
		icon = GFX_goal_generic_production
		x = -1
		y = 1
		relative_position_id = uk_battleship_focus
		cost = 5
		ai_will_do = {
			factor = 1
		}

		allow_branch = {
			has_dlc = "Man the Guns"
		}

		available_if_capitulated = yes

		complete_tooltip = {
			every_state = {
				limit = { has_state_flag = ENG_expand_the_repair_yards_2dockyard }
				add_extra_state_shared_building_slots = 2
				add_building_construction = {
					type = dockyard
					level = 2
					instant_build = yes
				}
			}
		}

		completion_reward = {
			random_owned_controlled_state = {
				limit = {
					is_coastal = yes
					free_building_slots = {
						building = dockyard
						size > 1
						include_locked = yes
					}
					is_core_of = ROOT
				}
				add_extra_state_shared_building_slots = 2
				add_building_construction = {
					type = dockyard
					level = 2
					instant_build = yes
				}
				set_state_flag = ENG_expand_the_repair_yards_2dockyard
			}
			add_ideas = ENG_expand_the_repair_yards
		}
	}

	focus = {
		id = ENG_vanguard
		prerequisite = { focus = uk_battleship_focus }
		icon = GFX_focus_generic_navy_battleship2
		x = 0
		y = 2
		relative_position_id = uk_battleship_focus
		cost = 5
		ai_will_do = {
			factor = 1
		}

		allow_branch = {
			has_dlc = "Man the Guns"
		}

		available = {
			date > 1941.1.1
			#has_tech = advanced_ship_hull_heavy
			has_full_control_of_state = 133
			#has_tech = improved_heavy_battery
			#has_tech = dp_secondary_battery
			#has_tech = antiair5
		}

		available_if_capitulated = yes

		completion_reward = {
			navy_experience = 25
			136 = {
				add_extra_state_shared_building_slots = 5
				add_building_construction = {
					type = dockyard
					level = 5
					instant_build = yes
				}}
			133 = {
				add_extra_state_shared_building_slots = 5
				add_building_construction = {
					type = dockyard
					level = 5
					instant_build = yes
				}}
			create_equipment_variant = {
				name = "Vanguard"
				type = ship_hull_heavy_4
				parent_version = 0
				modules = {
					fixed_ship_battery_slot = ship_heavy_battery_3
					fixed_ship_anti_air_slot = ship_anti_air_4
					fixed_ship_fire_control_system_slot = ship_fire_control_system_3
					fixed_ship_radar_slot = ship_radar_3
					fixed_ship_engine_slot = heavy_ship_engine_4
					fixed_ship_secondaries_slot = dp_ship_secondaries
					fixed_ship_armor_slot = ship_armor_bb_3
					front_1_custom_slot = ship_heavy_battery_3
					mid_1_custom_slot = ship_anti_air_4
					mid_2_custom_slot = dp_ship_secondaries
					mid_3_custom_slot = ship_anti_air_4
					rear_1_custom_slot = ship_heavy_battery_3
				}
			}
			if = {
				limit = {
					NOT = { has_government = communism }
				}
				133 = {
					custom_effect_tooltip = ENG_vanguard_tt_hms
				}
				hidden_effect = { load_oob = "ENG_vanguard_hms" }
			}
			if = {
				limit = {
					NOT = { has_government = communism }
				}
				133 = {
					custom_effect_tooltip = ENG_vanguard_tt_communism
				}
				hidden_effect = { load_oob = "ENG_vanguard_communist" }
			}
		}
	}
	
	#focus = {
	#	id = uk_embargo_focus
	#	available = { threat > 0.1 }
	#	icon = GFX_goal_support_democracy
	#	x = 12
	#	y = 0
	#	cost = 10
	#	ai_will_do = {
	#		factor = 1
	#	}	
	#	completion_reward = {
	#		every_other_country = {
	#			limit = { NOT = { has_government = democratic } }
	#			add_opinion_modifier = { target = ENG modifier = minor_sanctions }
	#			add_opinion_modifier = { target = ENG modifier = minor_sanctions_relations } 
	#		}
	#	}
	#}

	### EMPIRE ###

	focus = {
		id = uk_empire_focus 
		available = {
		} 
		icon = GFX_focus_eng_imperial_federation
		x = 19
		y = 0
		offset = {
			x = -1
			y = 0
			trigger = {
				NOT = { has_dlc = "Man the Guns" }
			}
		}
		cost = 5
		ai_will_do = {
			factor = 1

		}	

		available_if_capitulated = yes

		completion_reward = {
			add_stability = 0.1
		}
	}
	focus = {
		id = uk_service_focus 
		prerequisite = { focus = uk_empire_focus }
		available = {
			
		} 
		icon = GFX_goal_generic_position_armies
		x = 0
		y = 1
		offset = {
			x = 2
			y = 0
			trigger = {
				NOT = { has_dlc = "Man the Guns" }
			}
		}
		relative_position_id = uk_empire_focus
		cost = 5

		available_if_capitulated = yes

		completion_reward = {
			army_experience = 5
			navy_experience = 25
			air_experience = 25
			add_ideas = ENG_service_overseas_idea
		}
	}
	focus = {
		id = uk_mediterranean_focus 
		prerequisite = { focus = uk_service_focus }
		available = {
			446 = {
				CONTROLLER = {
					tag = ENG
				}
			}
		} 
		icon = GFX_goal_generic_construct_military
		x = 4
		y = 1
		relative_position_id = uk_service_focus
		cost = 10
		completion_reward = {
			if = {
				limit = {
					has_idea = ENG_fortify_the_empire_1
				}
				swap_ideas = {
					remove_idea = ENG_fortify_the_empire_1
					add_idea = ENG_fortify_the_empire_2
				}
			}
			if = {
				limit = {
					NOT = { has_idea = ENG_fortify_the_empire_1 }
					NOT = { has_idea = ENG_fortify_the_empire_2 }
				}
				add_ideas = ENG_fortify_the_empire_1
			}
			
			446 = {
				set_building_level = {
					type = coastal_bunker
					level = 3
					province = 12049
					instant_build = yes
				}
				set_building_level = {
					type = infrastructure
					level = 7
					instant_build = yes
				}
				set_building_level = {
					type = bunker
					level = 3
					province = 4076
					instant_build = yes
				}
				set_building_level = {
					type = bunker
					level = 3
					province = 7011
					instant_build = yes
				}
				add_building_construction = {
					type = anti_air_building
					level = 5
					instant_build = yes
				}
				set_building_level = {
					type = naval_base
					level = 9
					province = 4073
					instant_build = yes
				}
				
			}
		}
	}
	focus = {
		id = uk_rock_focus 
		prerequisite = { focus = uk_mediterranean_focus }
		available = {
			118 = { is_owned_and_controlled_by = ENG }
		} 
		icon = GFX_goal_generic_construct_military
		x = -1
		y = 1
		relative_position_id = uk_mediterranean_focus
		cost = 5
		completion_reward = {
			118 = {
				set_building_level = {
					type = coastal_bunker
					level = 5
					province = 4135
					instant_build = yes
				}
				set_building_level = {
					type = coastal_bunker
					level = 5
					province = 13235
					instant_build = yes
				}
				set_building_level = {
					type = air_base
					level = 20
					instant_build = yes
				}
				
			}
		}
	}
	
	focus = {
		id = uk_protect_suez
		prerequisite = { focus = uk_mediterranean_focus }
		icon = GFX_goal_generic_defence
		x = 0
		y = 2
		relative_position_id = uk_mediterranean_focus
		cost = 5
		ai_will_do = {
			factor = 1
		}

		available = {
			453 = {
				CONTROLLER = {
					tag = ENG
				}
			}
		}

		available_if_capitulated = yes

		# Needs province based trigger to work properly
		#bypass = {
		#	447 = {
		#		free_building_slots = {
		#			building = coastal_bunker
		#			size < 1
		#		}
		#		free_building_slots = {
		#			building = naval_base
		#			size < 1
		#		}
		#		free_building_slots = {
		#			building = air_base
		#			size < 1
		#		}
		
		#	}
		#}

		completion_reward = {
			
			
			455 = {
				
				
				set_building_level = {
					type = air_base
					level = 10
					instant_build = yes
				}

				
			}
			
			454 = {
				
				
				set_building_level = {
					type = air_base
					level = 10
					instant_build = yes
				}

				
			}
			
			
			453 = {
				set_building_level = {
					type = bunker
					level = 3
					province = 1155
					instant_build = yes
				}
				set_building_level = {
					type = bunker
					level = 3
					province = 9947
					instant_build = yes
				}
				set_building_level = {
					type = air_base
					level = 10
					instant_build = yes
				}
				add_building_construction = {
					type = naval_base
					level = 2
					instant_build = yes
					province=10099
				}
				set_building_level = {
					type = infrastructure
					level = 7
					instant_build = yes
				}
				add_building_construction = {
					type = anti_air_building
					level = 2
					instant_build = yes
				}
			}
		}
	}

	
	focus = {
		id = uk_malta_focus 
		prerequisite = { focus = uk_mediterranean_focus }
		available = {
			116 = { is_owned_and_controlled_by = ENG }
		}		
		icon = GFX_goal_generic_construct_military
		x = 1
		y = 1
		relative_position_id = uk_mediterranean_focus
		cost = 5

		available_if_capitulated = yes

		# Needs province based trigger to work properly
		#bypass = {
		#	116 = {
		#		free_building_slots = {
		#			building = coastal_bunker
		#			size < 2
		#		}
		#		free_building_slots = {
		#			building = air_base
		#			size < 1
		#		}
		#	}
		#}

		completion_reward = {
			116 = {
				
				set_building_level = {
					type = coastal_bunker
					level = 2
					province = 12003
					instant_build = yes
				}
				set_building_level = {
					type = air_base
					level = 10
					instant_build = yes
				}
				add_building_construction = {
					type = anti_air_building
					level = 5
					instant_build = yes
				}
			}
		}
	}

	focus = {
		id = uk_colonial_focus 
		prerequisite = { focus = uk_service_focus }
		icon = GFX_focus_research2
		x = -1
		y = 1
		relative_position_id = uk_service_focus
		cost = 5
		available_if_capitulated = yes

		completion_reward = {
			add_research_slot = 1
		}
	}

	focus = {
		id = uk_asia_focus 
		prerequisite = { focus = uk_colonial_focus }
		
		available = {
			336 = {
				CONTROLLER = {
					tag = ENG
				}
			}
			326 = {
				CONTROLLER = {
					tag = ENG
				}
			}
		}

		icon = GFX_goal_generic_construct_civilian
		x = -2
		y = 1
		relative_position_id = uk_colonial_focus
		cost = 5

		available_if_capitulated = yes

		bypass = {
			336 = {
				free_building_slots = {
					building = dockyard
					size < 1
					include_locked = yes
				}				
			}
			326 = {
				free_building_slots = {
					building = industrial_complex
					size < 1
					include_locked = yes
				}
			}
		}

		completion_reward = {
			if = {
				limit = {
					has_idea = ENG_fortify_the_empire_1
				}
				swap_ideas = {
					remove_idea = ENG_fortify_the_empire_1
					add_idea = ENG_fortify_the_empire_2
				}
			}
			if = {
				limit = {
					NOT = { has_idea = ENG_fortify_the_empire_1 }
					NOT = { has_idea = ENG_fortify_the_empire_2 }
				}
				add_ideas = ENG_fortify_the_empire_1
			}
			336 = {
				if = {
					limit = {
						CONTROLLER = {
							OR = {
								tag = ENG
								is_subject_of = ENG
							}
						}
						OWNER = {
							OR = {
								tag = ENG
								is_subject_of = ENG
							}
						}
					} 
					add_extra_state_shared_building_slots = 1
					add_building_construction = {
							type = dockyard
							level = 1
							instant_build = yes
					}
				}
			}
			326 = {
				if = {
					limit = {
						CONTROLLER = {
							OR = {
								tag = ENG
								is_subject_of = ENG
							}
						}
						OWNER = {
							OR = {
								tag = ENG
								is_subject_of = ENG
							}
						}
					}
					add_extra_state_shared_building_slots = 1
					add_building_construction = {
							type = industrial_complex
							level = 1
							instant_build = yes
					}
				}
			}
		}
	}

	focus = {
		id = uk_burma_focus
		prerequisite = { focus = uk_asia_focus } 
		available = {
		}

		bypass = {
			CHI = { exists = no }
		}

		icon = GFX_ENG_Burma_Road
		x = 1
		y = 1
		relative_position_id = uk_asia_focus
		cost = 5
		ai_will_do = {
			factor = 1
		}

		available_if_capitulated = yes

		bypass = {
			640 = {
				free_building_slots = {
					building = infrastructure
					size < 1
				}
			}
			325 = {
				free_building_slots = {
					building = infrastructure
					size < 1
				}
			}
			601 = {
				free_building_slots = {
					building = infrastructure
					size < 2
				}
				free_building_slots = {
					building = air_base
					size < 1
				}
				free_building_slots = {
					building = arms_factory
					size < 1
					include_locked = yes
				}
			}
		}

		completion_reward = {
			640 = {
				if = {
					limit = { 
						OR = { 
							ENG = { controls_state = 640 }
							any_other_country = {
								is_in_faction_with = ENG
								controls_state = 640
							} 
						}
					}
					add_building_construction = {
						type = infrastructure
						level = 2
						instant_build = yes
					}
				}
			}
			325 = {
				if = {
					limit = { 
					OR = { 
							CHI = { controls_state = 325 }
							any_other_country = {
								is_in_faction_with = CHI
								controls_state = 640
							} 
						}
					}
					add_building_construction = {
						type = infrastructure
						level = 2
						instant_build = yes
					}
				}
			}
			601 = {
				if = {
					limit = { 
						OR = { 
							CHI = { controls_state = 601 }
							any_other_country = {
								is_in_faction_with = CHI
								controls_state = 601
							} 
						} }
					add_building_construction = {
						type = infrastructure
						level = 2
						instant_build = yes
					}
				}
			}
			add_war_support = 0.05
			if = {
				limit = {
					has_dlc = "Waking the Tiger"
				}
				
			}
			CHI = {
				add_opinion_modifier = { target = ENG modifier = burma_road_good } 
				country_event = britain.4
			}
			JAP = {
				add_opinion_modifier = { target = ENG modifier = burma_road_bad } 
			} 
		}
	}
	focus = {
		id = hongkong_focus
		prerequisite = { focus = uk_asia_focus }
		icon = GFX_goal_generic_fortify_city
		x = -1
		y = 1
		relative_position_id = uk_asia_focus
		cost = 5
		ai_will_do = {
			factor = 0.25
		}
		available = { 
			326 = {
				CONTROLLER = {
					tag = ENG
				}
			}
		}

		available_if_capitulated = yes

		completion_reward = {
			navy_experience = 25
			326 = {
				add_extra_state_shared_building_slots = 1
				set_building_level = {
					type = coastal_bunker
					level = 3
					province = 10062
					instant_build = yes
				}
			}
		}
	}
	
	focus = {
		id = hk_air_focus
		prerequisite = { focus = hongkong_focus }
		icon = GFX_goal_generic_construct_civilian
		x = 0
		y = 1
		relative_position_id = hongkong_focus
		cost = 5
		ai_will_do = {
			factor = 1
		}	
		available = {
			326 = {
				CONTROLLER = {
					tag = ENG
				}
			}
		}

		available_if_capitulated = yes

		bypass = {
			326 = { 
				free_building_slots = {
					building = anti_air_building
					size < 2
				} 
				free_building_slots = {
					building = air_base
					size < 2
				}
			}
		}
		completion_reward = {
			326 = {
				add_building_construction = {
					type = anti_air_building
					level = 5
					instant_build = yes
				}
			
				set_building_level = {
					type = air_base
					level = 10
					instant_build = yes
				}
			}
		}
	}
	focus = {
		id = uk_commonwealth_focus 
		prerequisite = { focus = uk_colonial_focus }
		available = {
		}
		bypass = {
		}
		icon = GFX_goal_tfv_strengthen_commonwealth_ties
		x = 2
		y = 2
		relative_position_id = uk_colonial_focus
		cost = 5

		available_if_capitulated = yes

		completion_reward = {
			random_country = {
				limit = {
					original_tag = CAN
					is_in_faction_with = ROOT
				}
				add_opinion_modifier = { target = ENG modifier = ENG_commonwealth_ties }
			}
			random_country = {
				limit = {
					original_tag = AST
					is_in_faction_with = ROOT
				}
				add_opinion_modifier = { target = ENG modifier = ENG_commonwealth_ties }
			}
			random_country = {
				limit = {
					original_tag = RAJ
					is_in_faction_with = ROOT
				}
				add_opinion_modifier = { target = ENG modifier = ENG_commonwealth_ties }
			}
			random_country = {
				limit = {
					original_tag = NZL
					is_in_faction_with = ROOT
				}
				add_opinion_modifier = { target = ENG modifier = ENG_commonwealth_ties }
			}
			random_country = {
				limit = {
					original_tag = SAF
					is_in_faction_with = ROOT
				}
				add_opinion_modifier = { target = ENG modifier = ENG_commonwealth_ties }
			}
		}
	}

	focus = {
		id = ENG_british_commonwealth_air_training_plan
		prerequisite = { focus = uk_commonwealth_focus }
		icon = GFX_goal_generic_air_fighter2
		x = 2
		y = 1
		relative_position_id = uk_commonwealth_focus
		cost = 5
		ai_will_do = {
			factor = 3
		}

		available = {
		}

		bypass = {
		}

		completion_reward = {
			add_ideas = ENG_british_commonwealth_air_training_plan
			every_country = {
				limit = {
					is_subject_of = ROOT
					NOT = { original_tag = SAF }
				}
				add_ideas = ENG_british_commonwealth_air_training_plan
			}
			SAF = {
				if = {
					limit = {
						is_subject_of = ROOT
					}
					add_ideas = ENG_joint_air_training_scheme
				}
			}
		}
	}

	focus = {
		id = uk_india_focus 
		prerequisite = { focus = uk_commonwealth_focus }
		available = {
		} 
		icon = GFX_ENG_Development_of_the_League_Mandates
		x = -2
		y = 1
		relative_position_id = uk_commonwealth_focus
		cost = 5

		available_if_capitulated = yes

		bypass = {
			RAJ = {
				custom_trigger_tooltip = {
					tooltip = construction_effort_tt
					all_owned_state = {
						free_building_slots = {
							building = industrial_complex
							size < 1
							include_locked = yes
						}
					}
				}
			}
		}

		complete_tooltip = {
			random_country = {
				limit = {
					original_tag = RAJ
					is_in_faction_with = ROOT
				}
				add_opinion_modifier = { target = ENG modifier = aided_industry }
				every_state = { limit = { has_state_flag = ENG_uk_india_focus_2IC }
					add_extra_state_shared_building_slots = 2
					add_building_construction = {
						type = industrial_complex
						level = 2
						instant_build = yes
					}
				}
				every_state = { limit = { has_state_flag = ENG_uk_india_focus_1IC }
					add_extra_state_shared_building_slots = 1
					add_building_construction = {
						type = industrial_complex
						level = 1
						instant_build = yes
					}
				}
				
			}
		}

		completion_reward = {
		       
		       add_political_power = 25
			
			RAJ = {
				add_opinion_modifier = { target = ENG modifier = aided_industry }
				439 = {
					add_extra_state_shared_building_slots = 4
					add_building_construction = {
						type = industrial_complex
						level = 4
						instant_build = yes
					}
					set_state_flag = ENG_uk_india_focus_2IC
				}
			
				
				
				
			}
		 119 = {
					add_extra_state_shared_building_slots = 2
					add_building_construction = {
						type = industrial_complex
						level = 2
						instant_build = yes
					}
		}
	}}
	
	
	focus = {
		id = uk_australia_focus 
		prerequisite = { focus = uk_commonwealth_focus }
		available = {
		}

		bypass = {
			OR = {
				AST = { exists = no }
				AST = {
					custom_trigger_tooltip = {
						tooltip = construction_effort_tt
						all_owned_state = {
							free_building_slots = {
								building = industrial_complex
								size < 1
								include_locked = yes
							}
						}
					}
					custom_trigger_tooltip = {
						tooltip = naval_effort_tt
						all_owned_state = {
							free_building_slots = {
								building = dockyard
								size < 1
								include_locked = yes
							}
						}
					}
				}
			}
		}
		icon = GFX_ENG_Development_of_the_League_Mandates
		x = 0
		y = 1
		relative_position_id = uk_commonwealth_focus
		cost = 5

		available_if_capitulated = yes

		complete_tooltip = {
			random_country = {
				limit = {
					original_tag = AST
					is_in_faction_with = ROOT
				}
				add_opinion_modifier = { target = ENG modifier = aided_industry }
				every_state = { limit = { has_state_flag = ENG_uk_australia_focus_1IC }
					add_extra_state_shared_building_slots = 2
					add_building_construction = {
						type = industrial_complex
						level = 2
						instant_build = yes
					}
				}
				every_state = { limit = { has_state_flag = ENG_uk_australia_focus_2dockyards }
					add_extra_state_shared_building_slots = 1
					add_building_construction = {
						type = dockyard
						level = 1
						instant_build = yes
					}
				}
				every_state = { limit = { has_state_flag = ENG_uk_australia_focus_1dockyard }
					add_extra_state_shared_building_slots = 1
					add_building_construction = {
						type = dockyard
						level = 1
						instant_build = yes
					}
				}
				add_autonomy_ratio = {
					value = -0.05
					localization = uk_australia_focus
				}
			}
		}

		completion_reward = {
			add_political_power = 25
			AST = {
				add_opinion_modifier = { target = ENG modifier = aided_industry }
				
				random_owned_controlled_state = {
					limit = {
						free_building_slots = {
							building = industrial_complex
							size > 0
							include_locked = yes
						}
					}
					add_extra_state_shared_building_slots = 2
					add_building_construction = {
						type = industrial_complex
						level = 2
						instant_build = yes
					}
					set_state_flag = ENG_uk_australia_focus_1IC
				}
				random_owned_controlled_state = {
					limit = {
						is_coastal = yes
						free_building_slots = {
							building = dockyard
							size > 1
							include_locked = yes
						}
					}
					add_extra_state_shared_building_slots = 1
					add_building_construction = {
						type = dockyard
						level = 1
						instant_build = yes
					}
					set_state_flag = ENG_uk_australia_focus_2dockyards
				}
				random_owned_controlled_state = {
					limit = {
						is_coastal = yes
						free_building_slots = {
							building = dockyard
							size > 0
							include_locked = yes
						}
					}
					add_extra_state_shared_building_slots = 1
					add_building_construction = {
						type = dockyard
						level = 1
						instant_build = yes
					}
					set_state_flag = ENG_uk_australia_focus_1dockyard
				}
				
				
				add_autonomy_ratio = {
					value = -0.05
					localization = uk_australia_focus
				}
			}
		120 = {
					add_extra_state_shared_building_slots = 2
					add_building_construction = {
						type = industrial_complex
						level = 2
						instant_build = yes
					}
		
		}
	}}


	focus = {
		id = uk_new_zealand_focus 
		prerequisite = { focus = uk_australia_focus }
		available = {
		}
		bypass = {
			OR = {
				NZL = { exists = no }
				NZL = {
					custom_trigger_tooltip = {
						tooltip = construction_effort_tt
						all_owned_state = {
							free_building_slots = {
								building = industrial_complex
								size < 1
								include_locked = yes
							}
						}
					}
					custom_trigger_tooltip = {
						tooltip = naval_effort_tt
						all_owned_state = {
							free_building_slots = {
								building = dockyard
								size < 1
								include_locked = yes
							}
						}
					}
				}
			}
		}
		icon = GFX_ENG_Development_of_the_League_Mandates
		x = 0
		y = 1
		relative_position_id = uk_australia_focus
		cost = 5

		available_if_capitulated = yes


		complete_tooltip = {
			random_country = {
				limit = {
					original_tag = NZL
					is_in_faction_with = ROOT
				}
				add_opinion_modifier = { target = ENG modifier = aided_industry }
				every_state = { limit = { has_state_flag = ENG_uk_new_zealand_focus_1IC }
					add_extra_state_shared_building_slots = 2
					add_building_construction = {
						type = industrial_complex
						level = 2
						instant_build = yes
					}
				}
				every_state = { limit = { has_state_flag = ENG_uk_new_zealand_focus_2dockyards }
					add_extra_state_shared_building_slots = 1
					add_building_construction = {
						type = dockyard
						level = 1
						instant_build = yes
					}
				}
				every_state = { limit = { has_state_flag = ENG_uk_new_zealand_focus_1dockyard }
					add_extra_state_shared_building_slots = 1
					add_building_construction = {
						type = dockyard
						level = 1
						instant_build = yes
					}
				}
				add_autonomy_ratio = {
					value = -0.05
					localization = uk_new_zealand_focus
				}
			}
		}

		completion_reward = {
			
			add_political_power = 25

			NZL = {
				add_opinion_modifier = { target = ENG modifier = aided_industry }
				
				random_owned_controlled_state = {
					limit = {
						free_building_slots = {
							building = industrial_complex
							size > 0
							include_locked = yes
						}
					}
					add_extra_state_shared_building_slots = 2
					add_building_construction = {
						type = industrial_complex
						level = 2
						instant_build = yes
					}
					set_state_flag = ENG_uk_new_zealand_focus_1IC
				}
				random_owned_controlled_state = {
					limit = {
						is_coastal = yes
						free_building_slots = {
							building = dockyard
							size > 1
							include_locked = yes
						}
					}
					add_extra_state_shared_building_slots = 1
					add_building_construction = {
						type = dockyard
						level = 1
						instant_build = yes
					}
					set_state_flag = ENG_uk_new_zealand_focus_2dockyards
				}
				random_owned_controlled_state = {
					limit = {
						is_coastal = yes
						free_building_slots = {
							building = dockyard
							size > 0
							include_locked = yes
						}
					}
					add_extra_state_shared_building_slots = 1
					add_building_construction = {
						type = dockyard
						level = 1
						instant_build = yes
					}
					set_state_flag = ENG_uk_new_zealand_focus_1dockyard
				}
				
				add_autonomy_ratio = {
					value = -0.05
					localization = uk_new_zealand_focus
				}
			}
		121 = {
					add_extra_state_shared_building_slots = 2
					add_building_construction = {
						type = industrial_complex
						level = 2
						instant_build = yes
					}
		
		}
		
	}}


	focus = {
		id = uk_canada_focus 
		prerequisite = { focus = uk_commonwealth_focus }
		available = {
		}
		bypass = {
			OR = {
				CAN = { exists = no }
				CAN = {
					custom_trigger_tooltip = {
						tooltip = construction_effort_tt
						all_owned_state = {
							free_building_slots = {
								building = industrial_complex
								size < 1
								include_locked = yes
							}
						}
					}
					custom_trigger_tooltip = {
						tooltip = naval_effort_tt
						all_owned_state = {
							free_building_slots = {
								building = dockyard
								size < 1
								include_locked = yes
							}
						}
					}
				}
			}
		}
		icon = GFX_ENG_Development_of_the_League_Mandates
		x = -1
		y = 3
		relative_position_id = uk_commonwealth_focus
		cost = 5

		available_if_capitulated = yes

		complete_tooltip = {
			random_country = {
				limit = {
					original_tag = CAN
					is_in_faction_with = ROOT
				}
				add_opinion_modifier = { target = ENG modifier = aided_industry }
				every_state = { limit = { has_state_flag = ENG_uk_canada_focus_2IC }
					add_extra_state_shared_building_slots = 2
					add_building_construction = {
						type = industrial_complex
						level = 2
						instant_build = yes
					}
				}
				every_state = { limit = { has_state_flag = ENG_uk_canada_focus_1IC }
					add_extra_state_shared_building_slots = 1
					add_building_construction = {
						type = industrial_complex
						level = 1
						instant_build = yes
					}
				}
				every_state = { limit = { has_state_flag = ENG_uk_canada_focus_1dockyard }
					add_extra_state_shared_building_slots = 1
					add_building_construction = {
						type = dockyard
						level = 1
						instant_build = yes
					}
				}
				add_autonomy_ratio = {
					value = -0.05
					localization = uk_canada_focus
				}
			}
		}

		completion_reward = {
			
            add_political_power = 50

			CAN = {
				add_opinion_modifier = { target = ENG modifier = aided_industry }
				random_owned_controlled_state = {
					limit = {
						free_building_slots = {
							building = industrial_complex
							size > 1
							include_locked = yes
						}
					}
					add_extra_state_shared_building_slots = 2
					add_building_construction = {
						type = industrial_complex
						level = 2
						instant_build = yes
					}
					set_state_flag = ENG_uk_canada_focus_2IC
				}
				random_owned_controlled_state = {
					limit = {
						free_building_slots = {
							building = industrial_complex
							size > 0
							include_locked = yes
						}
					}
					add_extra_state_shared_building_slots = 1
					add_building_construction = {
						type = industrial_complex
						level = 1
						instant_build = yes
					}
					set_state_flag = ENG_uk_canada_focus_1IC
				}
				random_owned_controlled_state = {
					limit = {
						is_coastal = yes
						free_building_slots = {
							building = dockyard
							size > 0
							include_locked = yes
						}
					}
					add_extra_state_shared_building_slots = 1
					add_building_construction = {
						type = dockyard
						level = 1
						instant_build = yes
					}
					set_state_flag = ENG_uk_canada_focus_1dockyard
				}
				random_owned_controlled_state = {
					limit = {
						is_coastal = yes
						free_building_slots = {
							building = dockyard
							size > 0
							include_locked = yes
						}
					}
					add_extra_state_shared_building_slots = 1
					add_building_construction = {
						type = dockyard
						level = 1
						instant_build = yes
					}
					set_state_flag = ENG_uk_canada_focus_1dockyard
				}
				
				
				add_autonomy_ratio = {
					value = -0.05
					localization = uk_canada_focus
				}
			
			}
		122 = {
					add_extra_state_shared_building_slots = 2
					add_building_construction = {
						type = industrial_complex
						level = 2
						instant_build = yes
					}
		
		}
	}}

	focus = {
		id = uk_south_africa_focus
		prerequisite = { focus = uk_commonwealth_focus }
		available = {
		}
		bypass = {
			OR = {
				SAF = { exists = no }
				SAF = {
					custom_trigger_tooltip = {
						tooltip = construction_effort_tt
						all_owned_state = {
							free_building_slots = {
								building = industrial_complex
								size < 1
								include_locked = yes
							}
						}
					}
					custom_trigger_tooltip = {
						tooltip = naval_effort_tt
						all_owned_state = {
							free_building_slots = {
								building = dockyard
								size < 1
								include_locked = yes
							}
						}
					}
				}
			}
		}
		icon = GFX_ENG_Development_of_the_League_Mandates
		x = 1
		y = 3
		relative_position_id = uk_commonwealth_focus
		cost = 5

		available_if_capitulated = yes

		complete_tooltip = {
			random_country = {
				limit = {
					original_tag = SAF
					is_in_faction_with = ROOT
				}
				add_opinion_modifier = { target = ENG modifier = aided_industry }
				every_state = { limit = { has_state_flag = ENG_uk_south_africa_focus_2IC }
					add_extra_state_shared_building_slots = 2
					add_building_construction = {
						type = industrial_complex
						level = 2
						instant_build = yes
					}
				}
				every_state = { limit = { has_state_flag = ENG_uk_south_africa_focus_1IC }
					add_extra_state_shared_building_slots = 1
					add_building_construction = {
						type = industrial_complex
						level = 1
						instant_build = yes
					}
				}
				every_state = { limit = { has_state_flag = ENG_uk_south_africa_focus_1dockyard }
					add_extra_state_shared_building_slots = 1
					add_building_construction = {
						type = dockyard
						level = 1
						instant_build = yes
					}
				}
				add_autonomy_ratio = {
					value = -0.05
					localization = uk_south_africa_focus
				}
			}
		}

		completion_reward = {
			
            add_political_power = 25

			SAF = {
				add_opinion_modifier = { target = ENG modifier = aided_industry }
				random_owned_controlled_state = {
					limit = {
						free_building_slots = {
							building = industrial_complex
							size > 1
							include_locked = yes
						}
					}
					add_extra_state_shared_building_slots = 2
					add_building_construction = {
						type = industrial_complex
						level = 2
						instant_build = yes
					}
					set_state_flag = ENG_uk_south_africa_focus_2IC
				}
				random_owned_controlled_state = {
					limit = {
						free_building_slots = {
							building = industrial_complex
							size > 0
							include_locked = yes
						}
					}
					add_extra_state_shared_building_slots = 1
					add_building_construction = {
						type = industrial_complex
						level = 1
						instant_build = yes
					}
					set_state_flag = ENG_uk_south_africa_focus_1IC
				}
				random_owned_controlled_state = {
					limit = {
						is_coastal = yes
						free_building_slots = {
							building = dockyard
							size > 0
							include_locked = yes
						}
					}
					add_extra_state_shared_building_slots = 1
					add_building_construction = {
						type = dockyard
						level = 1
						instant_build = yes
					}
					set_state_flag = ENG_uk_south_africa_focus_1dockyard
				}
				random_owned_controlled_state = {
					limit = {
						is_coastal = yes
						free_building_slots = {
							building = dockyard
							size > 0
							include_locked = yes
						}
					}
					add_extra_state_shared_building_slots = 1
					add_building_construction = {
						type = dockyard
						level = 1
						instant_build = yes
					}
					set_state_flag = ENG_uk_south_africa_focus_1dockyard
				}
				
				
				add_autonomy_ratio = {
					value = -0.05
					localization = uk_south_africa_focus
				}
			}
		123 = {
					add_extra_state_shared_building_slots = 2
					add_building_construction = {
						type = industrial_complex
						level = 2
						instant_build = yes
					}
		
		
		}
	}}

	focus = {
		id = ENG_indian_autonomy
		prerequisite = { focus = uk_india_focus }

		available = { 	
		}

		continue_if_invalid = no

		icon = GFX_focus_generic_self_management

		x = 0
		y = 1
		relative_position_id = uk_india_focus
		cost = 1
		ai_will_do = {
			factor = 1
			#modifier = {
			#	factor = 0
			#}
		}	
		completion_reward = {
		       add_political_power = 150
			set_autonomy = {
				target = RAJ
				autonomy_state = autonomy_dominion
			}
			RAJ = { add_timed_idea = { idea = ENG_indian_autonomy_RAJ_idea days = 730
			 } 
			RAJ ={
			add_political_power = 180
			}
			}
			custom_effect_tooltip = ENG_indian_autonomy_tt   
		}
	}

	focus = {
		id = ENG_imperial_conference
		prerequisite = { focus = uk_canada_focus }
		prerequisite = { focus = uk_new_zealand_focus }
		prerequisite = { focus = uk_south_africa_focus }

		available = {
			date > 1938.3.1
		}

		bypass = {
		}

		continue_if_invalid = no

		icon = GFX_focus_ENG_imp_conference

		x = 0
		y = 2
		relative_position_id = uk_new_zealand_focus
		cost = 10
		ai_will_do = {
			factor = 1
		}	
		completion_reward = {
			hidden_effect = { news_event = { id = mtg_news.13 days = 1 } }
			ENG = { 
				add_timed_idea = { idea = ENG_imperial_conference_defense_5 days = 365 }
				add_timed_idea = { idea = ENG_imperial_conference_economy_5 days = 365 }
				add_war_support = 0.15
			}
			RAJ = {
				add_political_power = -60
				add_timed_idea = { idea = ENG_imperial_conference_economy_dominion days = 365 }
				add_timed_idea = { idea = ENG_imperial_conference_defense_dominion days = 365 }
				country_event = { id = mtg_britain.88 hours = 12 }
				add_war_support = 0.1
			}
			AST = { 
				add_political_power = -60
				add_timed_idea = { idea = ENG_imperial_conference_economy_dominion days = 365 }
				add_timed_idea = { idea = ENG_imperial_conference_defense_dominion days = 365 }	
				country_event = { id = mtg_britain.88 hours = 12 }
				add_war_support = 0.1
			}	
			NZL = {
				add_political_power = -60
				add_timed_idea = { idea = ENG_imperial_conference_economy_dominion days = 365 }
				add_timed_idea = { idea = ENG_imperial_conference_defense_dominion days = 365 }
				country_event = { id = mtg_britain.88 hours = 12 }
				add_war_support = 0.1
			}
			CAN = {
				add_political_power = -60
				add_timed_idea = { idea = ENG_imperial_conference_economy_dominion days = 365 }
				add_timed_idea = { idea = ENG_imperial_conference_defense_dominion days = 365 }	
				country_event = { id = mtg_britain.88 hours = 12 }
				add_war_support = 0.1
			}
			SAF = {
				add_political_power = -60
				add_timed_idea = { idea = ENG_imperial_conference_economy_dominion days = 365 }
				add_timed_idea = { idea = ENG_imperial_conference_defense_dominion days = 365 }	
				country_event = { id = mtg_britain.88 hours = 12 }
				add_war_support = 0.1
			}
		}
	}


	### DEMOCRATIC BRANCH - STEADY AS SHE GOES ###

	focus = {
		id = ENG_steady_as_she_goes
	
		available = { 
		}

		cancel_if_invalid = yes

		icon = GFX_focus_ENG_steady

		x = 28
		y = 0
		offset = {
			x = -7
			y = 0
			trigger = {
				NOT = { has_dlc = "Man the Guns" }
			}
		}

		cost = 5
		ai_will_do = {
			factor = 1
			modifier = {
				factor = 0
				OR = {
					has_country_flag = ENG_abdication_crisis_normal_marriage
					has_country_flag = ENG_abdication_crisis_morganatic_marriage
				}
			}
		}	
		completion_reward = {
			add_timed_idea = { idea = ENG_steady_as_she_goes_idea days = 365 }
		}
	}



	### HOME DEFENCE BRANCH

	### GERMAN WAR ###

	focus = {
		id = ENG_home_defence
		prerequisite = { focus = ENG_steady_as_she_goes }
		icon = GFX_focus_ENG_home_defense
		x = 0
		y = 1
		offset = {
			x = 0
			y = 1
			trigger = {
				NOT = { has_dlc = "Man the Guns" }
			}
		}
		relative_position_id = ENG_steady_as_she_goes
		cost = 5
		ai_will_do = {
			factor = 1
		}	
		completion_reward = {
			add_war_support = 0.05
			# Ipswich
			125 = {
				if = {
					limit = { is_controlled_by = ROOT }
					#Plymouth
					set_building_level = {
						type = coastal_bunker
						level = 3
						province = 271
						instant_build = yes
					}
				}
			}
			# Greater London Area
			126 = {
				if = {
					limit = { is_controlled_by = ROOT }
					#London
					set_building_level = {
						type = coastal_bunker
						level = 3
						province = 11374
						instant_build = yes
					}
				}
			}
			# Sussex
			127 = {
				if = {
					limit = { is_controlled_by = ROOT }
					#Dover
					set_building_level = {
						type = coastal_bunker
						level = 3
						province = 3501
						instant_build = yes
					}
					#Portsmouth
					set_building_level = {
						type = coastal_bunker
						level = 5
						province = 9458
						instant_build = yes
					}
				}								
			}
			# Cornwall
			123 = {
				if = {
					limit = { is_controlled_by = ROOT }
					#Plymouth
					set_building_level = {
						type = coastal_bunker
						level = 3
						province = 540
						instant_build = yes
					}
				}
			}
		}
	}

	# START IRAQ/IRAN/USSR INTERVENTION #
	
		
	

	focus = {
		id = ENG_issue_gasmasks
		available = {
			OR = {
				threat > 0.2
				has_war = yes
			}
		}

		available_if_capitulated = yes

		prerequisite = { focus = ENG_home_defence }
		icon = GFX_goal_generic_construct_military
		x = 0
		y = 1
		offset = {
			x = 1
			y = 0
			trigger = {
				NOT = { has_dlc = "Man the Guns" }
			}
		}
		relative_position_id = ENG_home_defence
		cost = 5
		ai_will_do = {
			factor = 1
		}	
		completion_reward = {
			add_war_support = 0.05
			add_stability = 0.1
		}
	}

	focus = {
		id = ENG_military_training_act
		

		available_if_capitulated = yes

		prerequisite = { focus = ENG_issue_gasmasks }
		icon = GFX_focus_generic_commonwealth_build_infantry
		x = 0
		y = 1
		relative_position_id = ENG_issue_gasmasks
		cost = 5
		ai_will_do = {
			factor = 1
		}	
		completion_reward = {
			remove_ideas = ENG_the_war_to_end_all_wars
			set_rule = { can_send_volunteers = yes }
		}
	}


	focus = {
		id = ENG_prepare_for_the_inevitable
		
		available = {

		}		
		prerequisite = { focus = ENG_home_defence }

		icon = GFX_goal_generic_construction

		x = -2
		y = 1
		offset = {
		}
		relative_position_id = ENG_home_defence
		cost = 5
		ai_will_do = {
			factor = 1
		}	
		completion_reward = {
			add_ideas = ENG_prepare_for_the_inevitable_idea
		}
	}
	focus = {
		id = ENG_pressure_axis
		
		available = {
		date>1941.1.1
		}		
		prerequisite = { focus = ENG_prepare_for_the_inevitable }

		icon = GFX_goal_generic_construct_military

		x = 0
		y = 1
		offset = {
			x = 1
			y = 0
			trigger = {
				NOT = { has_dlc = "Man the Guns" }
			}
		}
		relative_position_id = ENG_prepare_for_the_inevitable
		cost = 5
		ai_will_do = {
			factor = 1
		}	
		completion_reward = {
			
			swap_ideas = {
    remove_idea = ENG_prepare_for_the_inevitable_idea
    add_idea = ENG_handle_the_inevitable_idea
}
		}
	}
	focus = { 
	id = ENG_pressure_sweden
	prerequisite = { focus = ENG_home_defence }
	available = { 
	
	
	
	GER = { has_completed_focus = GER_pressure_sweden } 
	
	NOR_axis=yes
				  
	
									}
									
									
	icon = GFX_focus_ENG_coerce_sweden			 
	relative_position_id = ENG_home_defence
		x = 2
	    y = 1
		cost = 1
				 
	completion_reward = {
		GER = {
				remove_resource_rights = 666
				 }
				  SWE = {
					give_resource_rights = { receiver = ENG state = 666 }
					
					}
	
	
						
				
				 

	}
	
	}
	focus = {
		id = ENG_southern_thrust
		icon = GFX_focus_ENG_attack_iran
		prerequisite = { focus = ENG_military_training_act }
		relative_position_id = ENG_military_training_act
		x = 0
		y = 1
		
		cost = 0.1

	available = {
				date > 1940.6.1
				country_exists = PER
							}

		ai_will_do = {
			factor = 1
			modifier = {
				has_war_with = GER
				factor = 0
			}
			modifier = {
				AND = {
					has_war_with = ENG
					surrender_progress > 0.3
				}
				factor = 0
			}
			modifier = {
				has_war_with = RAJ
				factor = 5
			}
		}
		bypass = {

		}
		completion_reward = {
			SOV = { country_event = { id = iran.2}} 
			   
			ENG = { country_event = { id = iran.3 } }
		}
	}
 }

	