1={3838 }
2={9904 }
3={636 }
4={9679 }
5={6402 }
6={13068 }
7={3211 }
8={6583 }
9={9429 }
10={467 }
11={6407 }
12={341 }
13={11291 }
14={9495 }
15={11521 }
16={9507 }
17={6698 }
18={6545 }
19={6762 }
20={3770 }
21={911 }
22={6770 }
23={9631 }
24={3493 }
25={625 }
26={590 }
27={9625 }
28={549 }
29={575 }
30={11465 }
31={11697 }
32={762 }
33={651 }
34={9418 }
35={3262 }
36={9335 }
37={6287 }
38={6010 }
39={6675 }
40={1779 }
41={9767 }
42={3558 }
43={684 }
44={9780 }
45={9621 }
46={3636 }
47={863 }
48={935 }
49={909 }
50={6555 }
51={3547 }
52={708 }
53={11497 }
54={11544 }
55={3574 }
56={11233 }
57={11346 }
58={6257 }
59={6298 }
60={425 }
61={321 }
62={3258 }
63={11372 }
64={11359 }
65={9441 }
66={3485 }
67={479 }
68={444 }
69={3418 }
70={9539 }
71={3581 }
72={9567 }
73={11536 }
74={421 }
75={3569 }
76={3689 }
77={11597 }
78={3577 }
79={6584 }
80={9548 }
81={3645 }
82={3649 }
83={6682 }
84={690 }
85={389 }
86={17 }
87={9546 }
88={6522 }
89={11411 }
90={3586 }
91={491 }
92={6580 }
93={3412 }
94={3309 }
95={3366 }
96={9341 }
97={347 }
98={6321 }
99={3341 }
100={12689 }
101={12512 }
102={9627 }
103={984 }
104={982 }
105={9809 }
106={3865 }
107={9599 }
108={6953 }
109={11580 }
110={3136 }
111={11056 }
112={6924 }
113={7377 }
114={11824 }
115={1009 }
116={12003 }
117={3958 }
118={13236 }
119={385 }
120={9090 }
121={9314 }
122={407 }
123={9562 }
124={6258 }
125={11221 }
126={9239 }
127={3501 }
128={11345 }
129={364 }
130={9315 }
131={219 }
132={3205 }
133={9350 }
134={9303 }
135={9284 }
136={11306 }
137={3722 }
138={6412 }
139={9393 }
140={3063 }
141={9209 }
142={6145 }
143={3183 }
144={6130 }
145={9228 }
146={6150 }
147={9158 }
148={11115 }
149={63 }
150={3115 }
151={661 }
152={3673 }
153={6680 }
154={9706 }
155={11627 }
156={12098 }
157={6831 }
158={611 }
159={969 }
160={3657 }
161={3976 }
162={6946 }
163={3943 }
164={10007 }
165={6927 }
166={9840 }
167={9896 }
168={11807 }
169={1178 }
170={9917 }
171={11677 }
172={3931 }
173={11956 }
174={3727 }
175={9778 }
176={885 }
177={9793 }
178={13071 }
179={6884 }
180={3892 }
181={9787 }
182={9940 }
183={7193 }
184={11774 }
185={9805 }
186={11965 }
187={6550 }
188={3288 }
189={3337 }
190={265 }
191={6178 }
192={11703 }
193={3542 }
194={215 }
195={3151 }
196={737 }
197={11683 }
198={476 }
199={6509 }
200={9571 }
201={11514 }
202={3543 }
203={3468 }
204={304 }
205={9301 }
206={3267 }
207={11220 }
208={6197 }
209={11097 }
210={207 }
211={9769 }
212={9610 }
213={6194 }
214={3081 }
215={36 }
216={3144 }
217={3529 }
218={11434 }
219={9348 }
220={457 }
221={418 }
222={328 }
223={6333 }
224={6411 }
225={3455 }
226={9479 }
227={6474 }
228={9446 }
229={11674 }
230={12450 }
231={3653 }
232={6748 }
233={3667 }
234={750 }
235={11633 }
236={9735 }
237={3439 }
238={3417 }
239={3477 }
240={534 }
241={11271 }
242={11384 }
243={3210 }
244={3072 }
245={3519 }
246={6264 }
247={3143 }
248={11166 }
249={9401 }
250={3276 }
251={11256 }
252={3303 }
253={9159 }
254={330 }
255={257 }
256={325 }
257={9367 }
258={9394 }
259={6495 }
260={9552 }
261={971 }
262={6192 }
263={3089 }
264={6169 }
265={11423 }
266={4580 }
267={10852 }
268={8124 }
269={12759 }
270={1280 }
271={7912 }
272={12710 }
273={4191 }
274={8039 }
275={12064 }
276={9585 }
277={7913 }
278={10390 }
279={8194 }
280={12939 }
281={4967 }
282={993 }
283={556 }
284={12604 }
285={2114 }
286={7347 }
287={10885 }
288={7163 }
289={7292 }
290={12100 }
291={10876 }
292={7995 }
293={10840 }
294={2018 }
295={2024 }
296={12747 }
297={8244 }
298={8006 }
299={12960 }
300={12496 }
301={12901 }
302={10952 }
303={12983 }
304={4611 }
305={12798 }
306={2079 }
307={4942 }
308={7123 }
309={12828 }
310={12885 }
311={2077 }
312={2031 }
313={13085 }
314={12823 }
315={7590 }
316={12878 }
317={10728 }
318={1594 }
319={7632 }
320={10149 }
321={1273 }
322={2093 }
323={4386 }
324={8010 }
325={1383 }
326={10062 }
327={1221 }
328={1567 }
329={12610 }
330={7676 }
331={12680 }
332={1426 }
333={4396 }
334={8221 }
335={7654 }
336={12271 }
337={13003 }
338={3369 }
339={11848 }
340={3786 }
341={922 }
342={11917 }
343={3856 }
344={11810 }
345={1122 }
346={6894 }
347={6871 }
348={9830 }
349={6965 }
350={11739 }
351={11168 }
352={12476 }
353={876 }
354={11753 }
355={3935 }
356={11839 }
357={10247 }
358={6717 }
359={11900 }
360={11758 }
361={6892 }
362={11888 }
363={12054 }
364={1485 }
365={12384 }
366={10489 }
367={7640 }
368={1758 }
369={7547 }
370={10753 }
371={7555 }
372={1646 }
373={10391 }
374={8025 }
375={3972 }
376={12552 }
377={7920 }
378={11795 }
379={12425 }
380={12699 }
381={12651 }
382={3869 }
383={4586 }
384={1683 }
385={10305 }
386={12673 }
387={10556 }
388={4741 }
389={1836 }
390={1747 }
391={12597 }
392={4691 }
393={11731 }
394={926 }
395={7611 }
396={4527 }
397={9225 }
398={4802 }
399={4400 }
400={9172 }
401={9432 }
402={4638 }
403={9512 }
404={1382 }
405={4629 }
406={477 }
407={9487 }
408={6989 }
409={7249 }
410={10782 }
411={2026 }
412={12863 }
413={5089 }
414={10759 }
415={4949 }
416={2000 }
417={8125 }
418={12704 }
419={12861 }
420={4637 }
421={10774 }
422={10201 }
423={12247 }
424={4365 }
425={7391 }
426={10171 }
427={10324 }
428={10118 }
429={10270 }
430={2843 }
431={10077 }
432={10349 }
433={7998 }
434={1996 }
435={1569 }
436={7497 }
437={1949 }
438={5040 }
439={1898 }
440={10066 }
441={5042 }
442={1978 }
443={10735 }
444={5075 }
445={5105 }
446={10031 }
447={7870 }
448={4194 }
449={4047 }
450={10123 }
451={1204 }
452={11967 }
453={12073 }
454={4088 }
455={4562 }
456={7030 }
457={4910 }
458={11921 }
459={4116 }
460={4046 }
461={7100 }
462={4933 }
463={10694 }
464={4623 }
465={4432 }
466={12147 }
467={3721 }
468={4422 }
469={3769 }
470={12166 }
471={1411 }
472={7901 }
473={1737 }
474={4965 }
475={12753 }
476={2021 }
477={12810 }
478={13089 }
479={13088 }
480={7973 }
481={1945 }
482={12827 }
483={4977 }
484={1904 }
485={4887 }
486={5026 }
487={12973 }
488={10736 }
489={10855 }
490={8149 }
491={5162 }
492={5202 }
493={4969 }
494={8160 }
495={8172 }
496={8233 }
497={12913 }
498={10989 }
499={8177 }
500={10980 }
501={11003 }
502={10447 }
503={4587 }
504={12951 }
505={8140 }
506={5146 }
507={8218 }
508={11001 }
509={12922 }
510={7500 }
511={2158 }
512={5173 }
513={13074 }
514={1901 }
515={10758 }
516={9224 }
517={4776 }
518={5187 }
519={2219 }
520={12339 }
521={2116 }
522={10983 }
523={12107 }
524={1175 }
525={1081 }
526={10124 }
527={906 }
528={12006 }
529={7145 }
530={12028 }
531={7113 }
532={7087 }
533={1024 }
534={11989 }
535={10015 }
536={10444 }
537={1322 }
538={10951 }
539={8207 }
540={5158 }
541={10957 }
542={12940 }
543={5128 }
544={2202 }
545={2151 }
546={5224 }
547={2066 }
548={8223 }
549={12744 }
550={5047 }
551={4963 }
552={2064 }
553={1108 }
554={7184 }
555={13037 }
556={10788 }
557={5034 }
558={1891 }
559={8164 }
560={1842 }
561={7785 }
562={12683 }
563={4677 }
564={10658 }
565={4762 }
566={1727 }
567={7802 }
568={12563 }
569={7757 }
570={12679 }
571={1835 }
572={12157 }
573={11223 }
574={12565 }
575={1792 }
576={4842 }
577={7781 }
578={4681 }
579={8461 }
580={7768 }
581={12393 }
582={4265 }
583={12266 }
584={756 }
585={4488 }
586={7706 }
587={475 }
588={10202 }
589={12529 }
590={4281 }
591={1038 }
592={12077 }
593={7141 }
594={10004 }
595={10069 }
596={10014 }
597={11933 }
598={12055 }
599={1469 }
600={11988 }
601={5102 }
602={1448 }
603={10616 }
604={4964 }
605={1395 }
606={11994 }
607={12012 }
608={10068 }
609={12043 }
610={9905 }
611={4495 }
612={7578 }
613={996 }
614={11944 }
615={10367 }
616={8055 }
617={10545 }
618={1844 }
619={7790 }
620={8072 }
621={4525 }
622={7659 }
623={4214 }
624={10272 }
625={1224 }
626={7419 }
627={1407 }
628={7423 }
629={7195 }
630={13051 }
631={13052 }
632={13047 }
633={13045 }
634={4292 }
635={4268 }
636={4286 }
637={12522 }
638={12140 }
639={4387 }
640={7400 }
641={12148 }
642={13050 }
643={13056 }
644={1819 }
645={13025 }
646={13023 }
647={12103 }
648={13026 }
649={5023 }
650={13067 }
651={9349 }
652={12270 }
653={12696 }
654={4781 }
655={855 }
656={8085 }
657={12654 }
658={8108 }
659={12821 }
660={12719 }
661={10037 }
662={7881 }
663={4060 }
664={6561 }
665={10082 }
666={6168 }
667={4358 }
668={1419 }
669={4524 }
670={10330 }
671={10075 }
672={10209 }
673={4493 }
674={8237 }
675={4951 }
676={12372 }
677={7140 }
678={5081 }
679={1923 }
680={10383 }
681={4528 }
682={1769 }
683={3736 }
684={13036 }
685={7617 }
686={1440 }
687={4982 }
688={8203 }
689={12477 }
690={10254 }
691={3284 }
692={13009 }
693={10440 }
694={9377 }
695={153 }
696={13010 }
697={3118 }
698={1751 }
699={5012 }
700={2038 }
701={4989 }
702={13014 }
703={13013 }
704={13016 }
705={13015 }
706={13017 }
707={13018 }
708={13072 }
709={2188 }
710={13019 }
711={13005 }
712={13002 }
713={2165 }
714={7848 }
715={10429 }
716={9854 }
717={10376 }
718={2073 }
719={1468 }
720={10995 }
721={12206 }
722={6183 }
723={12974 }
724={12201 }
725={13038 }
726={7290 }
727={13053 }
728={11981 }
729={4189 }
730={373 }
731={3526 }
732={4768 }
733={12251 }
734={7390 }
735={3961 }
736={11735 }
737={10166 }
738={4579 }
739={1869 }
740={12272 }
741={4251 }
742={8027 }
743={10000 }
744={1976 }
745={6851 }
746={1959 }
747={8126 }
748={1010 }
749={10044 }
750={7434 }
751={2067 }
752={12724 }
753={4403 }
754={4888 }
755={10865 }
756={12820 }
757={2014 }
758={8029 }
759={4947 }
760={1838 }
761={4745 }
762={6464 }
763={348 }
764={3614 }
765={8051 }
766={6743 }
767={8103 }
768={9962 }
769={2220 }
770={12908 }
771={12504 }
772={12975 }
773={5054 }
774={7919 }
775={5136 }
776={12874 }
777={1951 }
778={8071 }
779={5013 }
780={8008 }
781={2056 }
782={1115 }
783={12857 }
784={3320 }
785={9561 }
786={10838 }
787={1910 }
788={6867 }
789={1192 }
790={3729 }
791={11806 }
792={740 }
793={3858 }
794={798 }
795={9869 }
796={2115 }
797={6136 }
798={5176 }
