
state={
	id=139
	name="STATE_139"
	manpower = 1
	
	state_category = town
	
	resources={
		#steel=7 # was: 10
	}


	history={
		owner = SWE
		victory_points = {
			11380 1 
		}
		buildings = {
			infrastructure = 5
			
			11380 = {
				naval_base = 1
			}
		}
		add_core_of = SWE
	}

	provinces={
		211 242 299 329 363 3229 6148 6311 6397 9251 9308 9329 9393 9406 9410 11231 11280 11289 11311 11380 11390 13095 
	}
}
