
state={
	id=168
	name="STATE_168"
	manpower = 1007605
	impassable=yes
	state_category = town

	history={
		owner = SPR
		victory_points = {
			10024 1 
		}
		buildings = {
			infrastructure = 5
			anti_air_building = 10
		}
		add_core_of = SPR
	}

	provinces={
		832 1093 3835 4195 7111 9903 10024 10109 11807 11812 11884 
	}
}
