
state={
	id=174
	name="STATE_174"
	manpower = 1566041
	
	resources={
		tungsten=10.000
	}
	state_category = large_town
	impassable=yes
	history={
		owner = SPR
		victory_points = {
			726 1
		}
		buildings = {
			infrastructure = 6
			industrial_complex = 1
			anti_air_building = 10
		}
		add_core_of = SPR
	}

	provinces={
		726 918 920 3725 3727 3918 3920 6746 6907 9699 11843 13219 13232 
	}
}
