state=
{
	id=177
	name="STATE_177"
	manpower = 365500
	state_category = rural
	
	history=
	{
		victory_points = {
			9793 1
		}
		owner = ITA
		buildings = {
			infrastructure = 6
			air_base = 4
			9793 = {
				naval_base = 4
			}
			7114 = {
				naval_base = 2
			}
		}
		add_core_of = ITA
	}
	provinces=
	{
7114 9793 9845 	}
}
