
state={
	id=211
	name="STATE_211"
	manpower = 1575499


	state_category = large_city

	history={
		owner = BUL
		victory_points = {
			9783 5
		}
		victory_points = {
			9902 3
		}
		buildings = {
			infrastructure = 4
			arms_factory = 1
			industrial_complex = 1
			9783 = {
				naval_base = 3
			}
			9902 = {
				naval_base = 1
			}
		}
		add_core_of = BUL
	}

	provinces={
		649 6967 9612 9769 9783 9888 9902 9919 
	}
}
