
state={
	id=212
	name="STATE_212"
	manpower = 2611100
	
	state_category = large_city

	history={
		owner = BUL
		victory_points = {
			6923 5
		}
		buildings = {
			infrastructure = 4
			arms_factory = 3
			industrial_complex =2
			air_base = 2
		}
		add_core_of = BUL
	}

	provinces={
		878 893 3796 3819 3937 3952 6814 6842 6923 6952 6982 9610 9862 11813 
	}
}
