
state={
	id=22
	name="STATE_22" # Languedoc
	manpower = 1691200
	
	
	state_category = town
	
	resources={
		steel=49 
		aluminium=10 
	}

	history={
		owner = FRA
		victory_points = {
			9898 1 
		}
		buildings = {
			infrastructure = 6
			air_base = 2
		}
		add_core_of = FRA
	}

	provinces={
		752 760 3751 6770 6960 6962 9723 9898 11709 11711 11877 
	}
}
