
state={
	id=248
	name="STATE_248"
	manpower = 1664541
	
	state_category = large_town

	history={
		owner = SOV
		victory_points = {
			121 5 
		}
		buildings = {
			infrastructure = 5
			air_base = 20
		}
		add_core_of = SOV
	}

	provinces={
		2 62 97 121 164 231 252 3077 3116 3190 3220 6056 6101 6143 6167 6356 9122 9188 9345 11039 11099 11166 11205 13128 
	}
}
