
state={
	id=259
	name="STATE_259" # Poltava
	manpower = 1442584
	
	state_category = rural

	history={
		victory_points = {
			11504 5
		}
		owner = SOV
		buildings = {
			infrastructure = 5
			air_base = 5
		}
		add_core_of = SOV
	}

	provinces={
		511 559 3557 6495 6507 6578 6605 9413 9519 11504 
	}
}
