state={
id=273
name="STATE_273"
manpower = 42633
state_category = wasteland
impassable = yes
history={
owner = ITA
add_core_of=SWE
buildings = {
infrastructure = 0
}
}
provinces={
1057  1140 1994 4191 4962 5004 7985 10104 10754 10884 12022 12082 12866
}
}
