state={
id=291
name="STATE_291"
manpower = 2044165
state_category = town
resources={
oil=55
}
history={
owner = ENG
add_core_of=SWE
victory_points = {
2097 5
}
victory_points = {
2089 1
}
buildings = {
infrastructure = 5
arms_factory = 1
industrial_complex = 1
air_base = 4
2089 = {
naval_base = 1
}
}
}
provinces={
78 2004 2089 2097 3795 7977 7994 8001 10876 12046 12726 12839 12855
}
}
