state={
id=295
name="STATE_295"
manpower = 3540948
state_category = rural
impassable=yes
resources={
tungsten=2
}
history={
owner = BEL
add_core_of=SWE
buildings = {
infrastructure = 3
industrial_complex = 1
10968 = {
naval_base = 1
}
}
victory_points = {
191 1
}
victory_points = {
5117 3
}
}
provinces={
191 1516 1731 1817 1929 1968 2024 4128 4515 5117 7716 9986 10025 10858 10968 12795 12896 12907 12925 12945
}
}
