
state={
	id=39
	name="STATE_39" # South Tyrol
	manpower = 641650
	
	state_category = town
	
	resources={
		aluminium=14 # was: 22
		#chromium=44    #7 from Aegean Islands, 14 from Epirus, 12 from Thessaly/Greece, 11 from Thrace             44 CHROMIUM MOVED TO SICILY
	}

	history={
		victory_points = {
			11598 1
		}
		owner = ITA
		buildings = {
			infrastructure = 6
			industrial_complex = 6
		}
		add_core_of = ITA
	}

	provinces={
		656 6631 6675 9598 9630 11598 11615 
	}
}
