
state={
	id=403
	name="STATE_403" # Tyumen
	manpower = 939067
	
	state_category = city

	history={
		owner = SOV
		victory_points = {
			4824 1
		}
		buildings = {
			infrastructure = 5
		}
		add_core_of = SOV
	}

	provinces={
		1387 1880 3472 4209 4659 4754 4780 4824 6787 7681 7774 7833 7846 9512 10600 10659 10670 12390 12521 
	}
}
