
state={
	id=420
	name="STATE_420"
	manpower = 1314948
	
	state_category = rural

	history={
		owner = PER
		buildings = {
			infrastructure = 3
		}
		add_core_of = PER
	}

	provinces={
		 4609 4637 4901 4553 10454  
	}
}
