
state={
	id=421
	name="STATE_421"
	manpower = 780278
	
	state_category = rural

	history={
		owner = PER
		buildings = {
			infrastructure = 3
		}
		add_core_of = PER
	}

	provinces={
		829 5050 5098 10774 12773 
	}
}
