state=
{
id=456
name="STATE_456"
manpower = 4224516
state_category = rural
history = {
victory_points = {
11999 1
}
owner = ENG
add_core_of=SWE
buildings = {
infrastructure = 4
}
}
provinces={
1028 1064 1151 1206 7030 7073 7144 10028 10097 10844 11974 11999 12044 12071 12771 13244 7188
}
}
