
state={
	id=526
	name="STATE_526"
	manpower = 578000
	
	state_category = small_island
resources={
		oil = 10 #moved from Xikang
	}
	history={
		owner = JAP
		add_core_of = JAP
		buildings = {
			infrastructure = 3
			industrial_complex = 1
			air_base = 3
			11932 = {
				naval_base = 3

			}

		}
		victory_points = {
			11932 10 
		}

	}

	provinces={
		1123 7115 10124 11932 
	}
}
