
state={
	id=569
	name="STATE_569" # Kemerovo
	manpower = 1567322
	
	state_category = town

	history={
		owner = SOV
		buildings = {
			infrastructure = 3
			industrial_complex = 9
		}
		add_core_of = SOV
		victory_points = {
			7757 1
		}
	}

	provinces={
		1369 1685 1702 1816 4665 4789 4793 7757 7822 7886 10580 10649 12631 
	}
}
