state={
	id=603
	name="STATE_603"

	history={
		owner = CHI
		add_core_of = CHI

		buildings = {
			infrastructure = 2 #1 civ/ 1 mill moved to Liangshan, 1 mill to another state in Xikang
		}
		1939.1.1 = {
			buildings = {
				industrial_complex = 4
				infrastructure = 4
				air_base = 1
				arms_factory = 2

			}

		}
		victory_points = {
			4504 3 
		}

	}

	provinces={
		1474 1884 4192 4504 4532 5072 7521 7549 7577 8095 10616 10819 12841 
	}
	manpower=7543200
	buildings_max_level_factor=1.000
	state_category=town
}
