state=
{
id=624
name="STATE_624"
manpower = 1290672
state_category = town
history=
{
owner = USA
add_core_of=SWE
buildings = {
infrastructure = 3
industrial_complex = 1
}
victory_points = {
4288 1
}
}
provinces={
1372 4228 4288 4377 7307 10272 10306 12279
}
}
