state={
id=634
name="STATE_634"
resources={
rubber=40

}
history={
owner = AST
add_core_of=SWE
buildings = {
infrastructure = 2
1269 = {
naval_base = 2
}
4226 = {
naval_base = 1
}
10234 = {
naval_base = 1
}
}
victory_points = {
1269 3
}
victory_points = {
4226 1
}
}
provinces={
1042 1085 1269 1358 1370 4226 4252 4292 4378 7437 10234 10291 10319 12265
}
manpower=150000
buildings_max_level_factor=1
state_category="small_island"
}
