
state={
	id=637
	name="STATE_637"

	history={
		owner = SOV
		buildings = {
			infrastructure = 2
			

		}
		add_core_of = SOV

	}

	provinces={
		1823 1839 1863 4728 7878 12207 12522 
	}
	manpower=48831
	buildings_max_level_factor=1
	state_category="wasteland"
}
