state=
{
	id=646
	name="STATE_646"
	state_category = small_island
	manpower=21657
	resources={
		oil = 7 #moved from Xikang
	}
	history=
	{
		owner = JAP
		add_core_of = JAP
		buildings = {
			infrastructure = 3
			air_base = 3
			3995 = {
				naval_base = 1

			}
			13023 = {
				naval_base = 1
			}
		}	
		victory_points = {
			3995 1
		 }

	}
	provinces={
		3995 13023 13024 
	}
}
