state={
	id=722
	name="STATE_722"
	manpower = 2371

	state_category = enclave

	history={
		owner = FIN
		buildings = {
			infrastructure = 1
		}
		add_core_of = FIN
	}
	
	provinces={
		6012 6183 9140 11142 
	}
}
