state={
id=729
name="STATE_729"
manpower = 157805
state_category = enclave
history={
owner = CHI
add_core_of=SWE
victory_points = {
4189 5
}
buildings = {
infrastructure = 4
4189 = {
naval_base = 1
}
}
}
provinces={
4189
}
}
