state=
{
	id=78
	name="STATE_78"
	manpower = 2296800
	
	state_category = town
	
	history= {
		owner = ROM
		victory_points = {
			3707 1
		}
		buildings = {
			infrastructure = 4
			air_base = 5
		}
		add_core_of = ROM
	}
	provinces=
	{
414 565 3407 3577 3707 3724 6600 9683 11686 11705 	}
}
