state={
id=781
name="STATE_781"
manpower = 543817
state_category = pastoral
history={
owner = FRA
add_core_of=SWE
victory_points = {
2056 1
}
buildings = {
industrial_complex = 2
infrastructure = 3
}
}
provinces={
1975 2056 12707
}
}
