state={
id=783
name="STATE_783"
manpower = 11043
state_category = pastoral
history={
victory_points = {
12857 1
}
owner = SPR
add_core_of=SWE
buildings = {
infrastructure = 1
}
}
provinces={
12857
}
}
