state={
	id=95
	name="STATE_95"

	history={
		victory_points = {
			9304 1
		}
		owner = POL
		buildings = {
			infrastructure = 4
			air_base = 6

		}
		add_core_of = POL

	}

	provinces={
		318 3281 3366 3393 6359 6413 9236 9304 9359 11341 13206 
	}
	manpower=1598900
	buildings_max_level_factor=1.000
	state_category=rural
}
