#	Example:
# 
#	example_trigger = {
#		tag = GER
#		is_ai = no
#	}
#
#
#	In a script file:
#
#	trigger = {
#		exampel_trigger = yes
#	}
# 
#	THIS FILE IS FOR TRIGGERS SPECIFICALLY FOR THE GER TAG

is_friend_or_potential_friend_of_GER = {
	OR = {
		is_puppet_of = GER
		is_puppet = no
	}
	OR = {
		is_in_faction_with = GER
		is_in_faction = no
	}
	NOT = { has_war_with = GER }
	has_capitulated = no
	exists = yes
}

is_alone_or_in_faction_at_peace_with_GER = {
	OR = {
		is_in_faction = no
		is_in_faction_with = GER
		AND = {
			is_in_faction = yes
			NOT = {
				is_in_faction_with = GER
			}
		}
	}
	NOT = {
		any_other_country = {
			is_in_faction_with = PREV
			has_war_with = GER
		}
	}
}





GER_naval_interest_trigger = {
	OR = {
		AND = {
			not = { has_war_with = SOV }
			OR = {
				has_war_with = ENG
				has_war_with = USA
				has_war_with = JAP
			}
		}
		has_completed_focus = GER_plan_z
	}
}

GER_should_split_SOV_front_with_ITA = {
	set_temp_variable = { num_ger_units = GER.num_armies }
	set_temp_variable = { num_ita_units = ITA.num_armies }
	
	check_variable = { num_ger_units > 100 }
	check_variable = { num_ita_units > 90 }
	
	ITA = {
		is_ai = yes
	}
	
	ITA = {
		OR = {
			exists = no
			NOT = { is_in_faction_with = GER }
			surrender_progress < 0.1
		}
	}
	
	ROM = {
		OR = {
			exists = no
			NOT = { is_in_faction_with = GER }
			surrender_progress < 0.05
		}
	}
	
	HUN = {
		OR = {
			exists = no
			NOT = { is_in_faction_with = GER }
			surrender_progress < 0.25
		}
	}
}
