﻿###########################
# Election Events
###########################

add_namespace = election

# Test Election Event
country_event = {
	id = election.1
	title = election.1.t
	desc = election.1.d
	picture = GFX_report_event_election_vote
	
	is_triggered_only = yes
	
	option = {
		name = election.1.a
	}
}

# Public Opposes Rearmament
country_event = {
	id = election.2
	title = election.2.t
	desc = election.2.d
	picture = GFX_report_event_airplane_factory
	
	is_triggered_only = yes
	
	trigger = {
		NOT = { 
			AND = { 
				tag = USA 
				date < 1949.1.1
			} 
		}
		OR = { NOT = { original_tag = SPR } NOT = { date < 1937.1.1 } }
		has_government = democratic
		NOT = {
			OR = {
				has_war = yes
				any_neighbor_country = {
					has_war = yes
				}
				any_allied_country = {
					has_war = yes
				}
			}
		}
		has_idea = partial_economic_mobilisation
	}

	option = {
		ai_chance = { 
			base = 1
		}
		name = election.2.a
	}

	option = {
		name = election.2.b
		ai_chance = {
			base = 0
			modifier = {
				add = 10
				can_lose_unity = yes
			}
		}
	}
}


# Public Demands Rearmament
country_event = {
	id = election.3
	title = election.3.t
	desc = election.3.d
	picture = GFX_report_event_tank_factory
	
	is_triggered_only = yes
	
	trigger = {
		NOT = { 
			AND = { 
				tag = USA 
				date < 1949.1.1
			} 
		}
		OR = { NOT = { original_tag = SPR } NOT = { date < 1937.1.1 } }
		has_government = democratic
		has_war = no
		OR = {
			any_neighbor_country = {
				has_war = yes
			}
			any_allied_country = {
				has_war = yes
			}
		}
		OR = {
			has_idea = low_economic_mobilisation
			has_idea = civilian_economy
			has_idea = isolation
			has_idea = undisturbed_isolation
			has_idea = volunteer_only
			has_idea = disarmed_nation
		}
	}

	option = {
		name = election.3.a
		if = {
			limit = { has_idea = low_economic_mobilisation }
			add_ideas = partial_economic_mobilisation
		}
		if = {
			limit = { has_idea = civilian_economy }
			add_ideas = low_economic_mobilisation
		}
		if = {
			limit = { has_idea = isolation }
			add_ideas = civilian_economy
		}
		if = {
			limit = { has_idea = undisturbed_isolation }
			add_ideas = isolation
		}
		if = {
			limit = { has_idea = volunteer_only }
			add_ideas = limited_conscription
		}
		if = {
			limit = { has_idea = disarmed_nation }
			add_ideas = volunteer_only
		}
		add_war_support = 0.05
	}

	option = {
		name = election.3.b
		ai_chance = {
			base = 0
		}
		add_stability = -0.05
	}
}

# Wartime Exception
country_event = {
	id = election.14
	title = election.14.t
	desc = election.14.d
	picture = GFX_report_event_tank_factory
	
	is_triggered_only = yes

	trigger = {
		NOT = { 
			AND = { 
				tag = USA 
				date < 1949.1.1
			} 
		}
		OR = { NOT = { original_tag = SPR } NOT = { date < 1937.1.1 } }
		has_government = democratic
		has_war = yes
	}
	
	option = {
		name = election.14.a
		ai_chance = {
			base = 0
			modifier = {
				add = 10
				can_lose_unity = yes
			}
		}
		add_stability = -0.05
	}

	option = {
		ai_chance = {
			base = 0
			modifier = {
				add = 3
				can_lose_democracy_support = yes
			}			
			modifier = {
				add = 1
				can_lose_unity = no
			}
		}
		name = election.14.b
		add_political_power = 20
		add_stability = 0.05
		add_popularity = {
			ideology = communism
			popularity = 0.05
		}
		add_popularity = {
			ideology = fascism
			popularity = 0.05
		}
	}
}

# Government Contested
country_event = {
	id = election.15
	title = election.15.t
	desc = election.15.d
	picture = GFX_report_event_gathering_protest
	
	is_triggered_only = yes

	trigger = {
		NOT = { 
			AND = { 
				tag = USA 
				date < 1949.1.1
			} 
		}
		OR = { NOT = { original_tag = SPR } NOT = { date < 1937.1.1 } }
		has_government = democratic
		has_war = yes
		any_war_score < 20
	}
	
	option = {
		ai_chance = {
			base = 0
			modifier = {
				add = 3
				can_lose_democracy_support = no
			}			
		}
		name = election.15.a
		add_political_power = -50
		add_stability = -0.05
	}

	option = {
		name = election.15.b
		ai_chance = {
			base = 0
			modifier = {
				add = 10
				can_lose_democracy_support = yes
			}			
			modifier = {
				add = 1
				can_lose_unity = no
			}
		}
		add_political_power = 25
		add_stability = 0.05
		add_popularity = {
			ideology = communism
			popularity = 0.07
		}
		add_popularity = {
			ideology = fascism
			popularity = 0.07
		}
	}
}
