﻿###########################
# Spanish Events
###########################

add_namespace = spain

# Spanish Civil War
country_event = {
	id = spain.1
	title = spain.1.t
	desc = spain.1.d
	picture = GFX_report_event_spain_civil_war_soldiers
	
	fire_only_once = yes
	is_triggered_only = yes
	
	
	option = { # Support Nationalists
		name = spain.1.a
		trigger = { is_ai = no }
	
 
      if = { 
      limit = { original_tag = SPR }
	  hidden_effect = {
		add_timed_idea = { idea = SPA_civil_war days = 365}
		add_ideas = SPA_recovering_from_civil_war
		
		create_corps_commander = {
			name = "Francisco Franco"
			id = 1490
			picture = "Portrait_Spain_Francisco_Franco.dds"
			traits = {  panzer_leader panzer_expert trickster expert_improviser trait_engineer organizer}
			skill = 6
			attack_skill = 6
			defense_skill = 3
			planning_skill = 3
			logistics_skill = 4
		}
			
	
         add_threat = 3         
		 
		GER = { 
		        army_experience = 250
		        air_experience = 250}
		
        SOV = { 
		        army_experience = 250
		        air_experience = 250} 	
		
        ITA = { 
		        army_experience = 100
		        air_experience = 200}

		set_politics = {
				ruling_party = fascism	
			}
			
			set_popularities = {
	       democratic = 0
	       neutrality = 0
	        fascism = 100
	          communism = 0
               }
			set_global_flag = spanish_civil_war
			
			set_stability = 1
			set_war_support = 1
			army_experience = 30
			
			
			random_other_country = {
				limit = {
					original_tag = SPR
					has_government = communism
				}
				set_cosmetic_tag = SPR_civil_war
			}

			#country_event = { id = spain.2 days = 7 }
		}
		custom_effect_tooltip = nationalists_chosen
		}
	}
}

# Civil war over. Move Capital
country_event = {
	id = spain.8
	title = spain.8.t
	desc = spain.8.d
	picture = GFX_report_event_spain_civil_war_volunteers_01
	is_triggered_only = yes
	

	fire_only_once = yes

    immediate = {
	SPR = {news_event = { id = news.64 }}
	create_corps_commander = {
	name = "Francisco Franco"
	id = 1490
		picture = "Portrait_Spain_Francisco_Franco.dds"
	traits = {  panzer_leader infantry_leader trickster expert_improviser trait_engineer organizer}
	skill = 6

	
	attack_skill = 6
	defense_skill = 3
	planning_skill = 3
	logistics_skill = 4
}
#SOV = { remove_ideas = SOV_hidden_problem}
#SPR = { remove_ideas = SPR_memories}




}
	option = {
		ai_chance = { factor = 1 }
		name = spain.8.a
		set_capital = 41
		
	}

}

# Election of 1936
country_event = {
	id = spain.9
	title = spain.9.t
	desc = spain.9.d
	picture = GFX_report_event_election_vote
	
	is_triggered_only = yes

	fire_only_once = yes

	trigger = {
		tag = SPR
		date < 1937.1.1
	}

	# Popular Front
	option = {
		ai_chance = { factor = 1 }
		name = spain.9.a
		add_popularity = {
			ideology = communism
			popularity = 0.1
		}
	}
	
}

country_event = {
	id = spain.20
	title = spain.20.t
	desc = spain.20.d
	picture = GFX_franco
	
	is_triggered_only = yes

	fire_only_once = yes

	option = {
		name = spain.20.a
		
	}

}




	
	
	country_event = {
	
	id = spain.33
	title = spain.33.t
	desc = spain.33.d
	picture = GFX_report_event_spain_civil_war_volunteers_01
	is_triggered_only = yes 
	fire_only_once = yes

	option = {
		name = spain.33.a
		
delete_unit_template_and_units = { division_template = "División de Infantería" }
delete_unit_template_and_units = { division_template = "División de Caballería" }
delete_unit_template_and_units = { division_template = "Brigada Montaña" }
delete_unit_template_and_units = { division_template = "Brigada de Infantería" }

	}

	
	
	
	}