﻿division_template = {
	name = "Infantry Division"
	division_names_group = RAJ_INF_01

	regiments = {
		infantry = { x = 0 y = 0 }
		infantry = { x = 0 y = 1 }
		infantry = { x = 0 y = 2 }
		infantry = { x = 0 y = 3 }
		artillery_brigade = { x = 0 y = 4 }
        infantry = { x = 1 y = 0 }
		infantry = { x = 1 y = 1 }
		infantry = { x = 1 y = 2 }
		infantry = { x = 1 y = 3 }
		artillery_brigade = { x = 1 y = 4 }
        infantry = { x = 2 y = 0 }
		infantry = { x = 2 y = 1 }
		infantry = { x = 2 y = 2 }
		artillery_brigade = { x = 2 y = 3 }
	infantry = { x = 3 y = 0 }
		infantry = { x = 3 y = 1 }
		infantry = { x = 3 y = 2 }
		artillery_brigade = { x = 3 y = 3 }
	}
	support = {
       	engineer = { x = 0 y = 0 }
       	artillery = { x = 0 y = 1 }
	recon = { x = 0 y = 2 }
	}
}
division_template = {
	name = "District Garrison"			# Represents precursors to Indian Infantry Divisions (district divisions)
	division_names_group = RAJ_GAR_01
										# Has older equipment, lower experience
	regiments = {
	infantry = { x = 0 y = 0 }
		infantry = { x = 0 y = 1 }
		infantry = { x = 0 y = 2 }
		infantry = { x = 0 y = 3 }
		infantry = { x = 0 y = 4 }
	infantry = { x = 1 y = 0 }
		infantry = { x = 1 y = 1 }
		infantry = { x = 1 y = 2 }
		infantry = { x = 1 y = 3 }
		infantry = { x = 1 y = 4 }
	}
	support = {
       	engineer = { x = 0 y = 0 }
	}
	priority = 0
}


####### OOB #######

units = {
	division= {	
		name = "This is here so you can look at your generals"
		location = 2086
		division_template = "Infantry Division"
		start_experience_factor = 0
		start_equipment_factor = 0.01
	}
}

##### Starting Production #####
instant_effect = {
	add_equipment_production = {
		equipment = {
			type = infantry_equipment_1
			creator = "RAJ"
		}
		requested_factories = 1
		progress = 0.12
		efficiency = 100
	}
	add_equipment_production = {
		equipment = {
			type = support_equipment_1
			creator = "RAJ" 
		}
		requested_factories = 1
		progress = 0.3
		efficiency = 50
	}
	add_equipment_production = {
		equipment = {
			type = artillery_equipment_1
			creator = "RAJ" 
		}
		requested_factories = 1
		progress = 0.3
		efficiency = 50
	}
}